%!PS-Adobe-2.0
%%BoundingBox: -20 -20 450  450 
%%DocumentFonts: Helvetica
%%Pages:  7 
%!MadGraph
%
% Feynman Diagrams drawn by MadGraph5_aMC@NLO
%
% Using FEYNMAN DRAW
% A program by David J. Summers to draw
% Feynman diagrams. (c) 1992
% Version 2.7 (c) 1993
%
% Comments and questions to 
%  D.J.Summers@uk.ac.durham
%

/Fnopoints 10 def 
/Fr 2.5 def 
/pi 3.14159265359 def

/Frmod {dup 360 div floor 360 mul sub} def
/Fsign {0 ge {1} {-1} ifelse} def

/Fbasis
{/Fby exch def /Fbx exch def /Fdist Fbx Fbx
mul Fby Fby mul add sqrt def /Fxl Fbx Fdist
div Fr mul def /Fyl Fby Fdist div Fr mul def
/Fxt Fby Fdist div Fr mul def /Fyt Fbx neg
Fdist div Fr mul def } def

/Fstraight 
{/Fshape exch def /Ftype exch def /Fy2 exch
def /Fx2 exch def /Fy1 exch def /Fx1 exch def
Fx2 Fx1 sub Fy2 Fy1 sub Fbasis /Fttype 1
Ftype 2 mod 2 mul abs sub def Ftype 0 ge
{/Fddist Fdist Fr div 2 div def /Fn Fddist round
def Ftype 1 gt {/Fn Fn Fddist Fn sub Fsign
add def} if} {/Fn Fdist Fr div 2 div round 2
mul def} ifelse Fx1 Fy1 moveto 0 1 Fnopoints
Fn mul {/Fi exch def Fshape lineto } for
stroke } def

/Floop
{/Fshape exch def /Fe exch def /Ftype exch
def /Fy2 exch def /Fx2 exch def /Fy1 exch def
/Fx1 exch def /Flam 1 Fe Fe mul sub 2 div Fe
div def /Fxc Fx1 Fx2 Flam Fy2 Fy1 sub mul add
add 2 div def /Fyc Fy1 Fy2 Flam Fx1 Fx2 sub
mul add add 2 div def /Frr Fx1 Fxc sub dup
mul Fy1 Fyc sub dup mul add sqrt def /Fth1
Fy1 Fyc sub Fx1 Fxc sub atan def /Fth2 Fy2
Fyc sub Fx2 Fxc sub atan def Fe 0 lt Fth2
Fth1 lt and {/Fth1 Fth1 360 sub def} if Fe 0
gt Fth2 Fth1 gt and {/Fth2 Fth2 360 sub def}
if /Fdth Fth2 Fth1 sub Fsign def /Fttype 1
Ftype 2 mod abs 2 mul sub def Ftype 0 ge
{/Fddist Fth2 Fth1 sub abs 180 div pi mul Frr
mul Fr div def /Fn Fddist round def Ftype 1
gt {/Fn Fn Fddist Fn sub Fsign add def} if}
{/Fn Fth2 Fth1 sub abs 180 div pi mul Frr mul
Fr div 2 div round 2 mul def} ifelse Fx1 Fy1
moveto 0 1 Fnopoints Fn mul {/Fi exch def
/Fth Fth1 Fth2 Fth1 sub Fi mul Fnopoints div
Fn div add Frmod def Fth sin neg Fdth mul Fth
cos Fdth mul Fbasis Fshape lineto } for
stroke } def

/Farrow
{ moveto Fxt Fxl sub Fyt Fyl sub
rlineto Fxl 2 mul Fxt sub Fyl 2 mul Fyt sub
rlineto Fxl 2 mul Fxt add neg Fyl 2 mul Fyt
add neg rlineto fill } def

/Fphoton
{{ Fx1 Fx2 Fx1 sub Fi mul Fnopoints div Fn
div Fxt Fi 360 mul Fnopoints div Frmod sin
mul Fttype mul 2 div add add Fy1 Fy2 Fy1 sub
Fi mul Fnopoints div Fn div Fyt Fi 360 mul
Fnopoints div Frmod sin mul Fttype mul 2 div
add add } Fstraight } def

/Fphotonr
{{ Fx1 Fx2 Fx1 sub Fi mul Fnopoints div Fn
div Fxt Fi 180 mul Fnopoints div Frmod sin
mul Fttype mul 1 div add add Fy1 Fy2 Fy1 sub
Fi mul Fnopoints div Fn div Fyt Fi 180 mul
Fnopoints div Frmod sin mul Fttype mul 1 div
add add } Fstraight } def

/Fphotond
{{ Fx1 Fx2 Fx1 sub Fi mul Fnopoints div Fn
div Fxt Fi 360 mul Fnopoints div Frmod sin
mul Fttype mul 2 div add add Fy1 Fy2 Fy1 sub
Fi mul Fnopoints div Fn div Fyt Fi 360 mul
Fnopoints div Frmod sin mul Fttype mul 2 div
add add } Fstraight Fx1
Fx2 add 2 div Fy1 Fy2 add 2 div Farrow} def

/Fphotonl
{exch dup 3 1 roll 0 ge {{ Fxc Fth cos Frr
mul Fxt Fi 180 mul Fnopoints div Frmod sin
mul Fttype mul 2 div add add Fyc Fth sin Frr
mul Fyt Fi 180 mul Fnopoints div Frmod sin
mul Fttype mul 2 div add add }} {{ Fxc Fth
cos Frr mul Fxt 1 Fi 180 mul Fnopoints div
Frmod cos sub mul Fttype mul 2 div add add
Fyc Fth sin Frr mul Fyt 1 Fi 180 mul
Fnopoints div Frmod cos sub mul Fttype mul 2
div add add }} ifelse Floop } def

/Fgluon
{2 sub { Fx1 Fx2 Fx1 sub Fi mul Fnopoints div
Fn div Fxt 1 Fi 180 mul Fnopoints div cos sub
mul Fttype mul Fxl Fi 180 mul Fnopoints div
sin mul add add add Fy1 Fy2 Fy1 sub Fi mul
Fnopoints div Fn div Fyt 1 Fi 180 mul
Fnopoints div cos sub mul Fttype mul Fyl Fi
180 mul Fnopoints div sin mul add add add }
Fstraight } def

/Fgluonr
{2 sub { Fx1 Fx2 Fx1 sub Fi mul Fnopoints div
Fn div Fxt 0 Fi 120 mul Fnopoints div cos sub
mul Fttype mul Fxl Fi 120 mul Fnopoints div
sin mul add add add Fy1 Fy2 Fy1 sub Fi mul
Fnopoints div Fn div Fyt 0 Fi 120 mul
Fnopoints div cos sub mul Fttype mul Fyl Fi
120 mul Fnopoints div sin mul add add add }
Fstraight } def


/Fgluonl
{exch 2 sub exch { Fxc Fth cos Frr mul Fxt 1
Fi 180 mul Fnopoints div cos sub mul Fttype
mul Fxl Fi 180 mul Fnopoints div sin mul add
add add Fyc Fth sin Frr mul Fyt 1 Fi 180 mul
Fnopoints div cos sub mul Fttype mul Fyl Fi
180 mul Fnopoints div sin mul add add add }
Floop} def

/Ffermion
{/Fy2 exch def /Fx2 exch def /Fy1 exch def
/Fx1 exch def newpath Fx2 Fx1 sub Fy2 Fy1 sub
Fbasis Fx1 Fy1 moveto Fx2 Fy2 lineto stroke Fx1
Fx2 add 2 div Fy1 Fy2 add 2 div Farrow } def

/Fscalar
{newpath moveto lineto stroke} def

/Ffermionl
{/Fe exch def /Fy2 exch def /Fx2 exch def
/Fy1 exch def /Fx1 exch def newpath /Flam 1 Fe
Fe mul sub 2 div Fe div def /Fxc Fx1 Fx2 Flam Fy2
Fy1 sub mul add add 2 div def /Fyc Fy1 Fy2
Flam Fx1 Fx2 sub mul add add 2 div def /Frr
Fx1 Fxc sub dup mul Fy1 Fyc sub dup mul add
sqrt def /Fth1 Fy1 Fyc sub Fx1 Fxc sub atan
def /Fth2 Fy2 Fyc sub Fx2 Fxc sub atan def Fe
0 lt Fth2 Fth1 lt and {/Fth1 Fth1 360 sub
def} if Fe 0 gt Fth2 Fth1 gt and {/Fth2 Fth2
360 sub def} if /Fthc Fth1 Fth2 add 2 div def
Fxc Fyc Frr Fth1 Fth2 Fe 0 gt {arcn} {arc}
ifelse stroke Fthc sin Fe 0 lt {neg} if Fthc
cos Fe 0 gt {neg} if Fbasis Fxc Fthc cos Frr
mul add Fyc Fthc sin Frr mul add Farrow } def

/Fscalarl
{/Fe exch def /Fy2 exch def /Fx2 exch def
/Fy1 exch def /Fx1 exch def newpath /Flam 1 Fe
Fe mul sub 2 div Fe div def /Fxc Fx1 Fx2 Flam Fy2
Fy1 sub mul add add 2 div def /Fyc Fy1 Fy2
Flam Fx1 Fx2 sub mul add add 2 div def /Frr
Fx1 Fxc sub dup mul Fy1 Fyc sub dup mul add
sqrt def /Fth1 Fy1 Fyc sub Fx1 Fxc sub atan
def /Fth2 Fy2 Fyc sub Fx2 Fxc sub atan def Fe
0 lt Fth2 Fth1 lt and {/Fth1 Fth1 360 sub
def} if Fe 0 gt Fth2 Fth1 gt and {/Fth2 Fth2
360 sub def} if /Fthc Fth1 Fth2 add 2 div def
Fxc Fyc Frr Fth1 Fth2 Fe 0 gt {arcn} {arc}
ifelse stroke } def

/Fblob 
{/Fshade exch def newpath Fr mul 0 360 arc gsave
1 Fshade sub setgray fill grestore stroke} def

/Fhiggs
{/Fy2 exch def /Fx2 exch def /Fy1 exch def
/Fx1 exch def gsave Fx1 Fx2 sub dup mul
Fy1 Fy2 sub dup mul add sqrt dup Fr div
2 div round 2 mul 1 add div /dashln exch def
[dashln dashln] 0 setdash Fx1 Fy1 moveto
Fx2 Fy2 lineto stroke grestore} def


/Fhiggsd
{/Fy2 exch def /Fx2 exch def /Fy1 exch def
/Fx1 exch def gsave Fx1 Fx2 sub dup mul
Fy1 Fy2 sub dup mul add sqrt dup Fr div
2 div round 2 mul 1 add div /dashln exch def
[dashln dashln] 0 setdash Fx1 Fy1 moveto
Fx2 Fy2 lineto stroke grestore Fx1 Fx2 add 2 div
Fy1 Fy2 add 2 div Farrow} def

/Fhiggsl
{/Fe exch def /Fy2 exch def /Fx2 exch def
/Fy1 exch def /Fx1 exch def /Flam gsave 1 Fe
Fe mul sub 2 div Fe div def /Fxc Fx1 Fx2 Flam
Fy2 Fy1 sub mul add add 2 div def /Fyc Fy1
Fy2 Flam Fx1 Fx2 sub mul add add 2 div def
/Frr Fx1 Fxc sub dup mul Fy1 Fyc sub dup mul
add sqrt def /Fth1 Fy1 Fyc sub Fx1 Fxc sub
atan def /Fth2 Fy2 Fyc sub Fx2 Fxc sub atan
def Fe 0 lt Fth2 Fth1 lt and {/Fth1 Fth1 360
sub def} if Fe 0 gt Fth2 Fth1 gt and {/Fth2
Fth2 360 sub def} if /Fthc Fth1 Fth2 add 2
div def Fxc Fyc Frr Fth1 Fth2 Fe 0 gt {arcn}
{arc} ifelse Fth2 Fth1 sub abs 180 div pi mul
Frr mul dup Fr div 2 div round 2 mul 1 add
div /dashln exch def [dashln dashln] 0
setdash stroke grestore} def

/Fghost
{/Fy2 exch def /Fx2 exch def /Fy1 exch def
/Fx1 exch def Fx2 Fx1 sub Fy2 Fy1 sub Fbasis
/Fn Fx1 Fx2 sub dup mul Fy1 Fy2 sub dup mul
add sqrt Fr div round def 0 1 Fn {/Fi exch
def Fx2 Fx1 sub Fi Fn div mul Fx1 add Fy2 Fy1
sub Fi Fn div mul Fy1 add Fr 10 div 0 360 arc
fill} for Fx1 Fx2 add 2 div Fy1 Fy2 add 2 div
Farrow } def

/Fghostl
{/Fe exch def /Fy2 exch def /Fx2 exch def
/Fy1 exch def /Fx1 exch def /Flam 1 Fe Fe mul
sub 2 div Fe div def /Fxc Fx1 Fx2 Flam Fy2
Fy1 sub mul add add 2 div def /Fyc Fy1 Fy2
Flam Fx1 Fx2 sub mul add add 2 div def /Frr
Fx1 Fxc sub dup mul Fy1 Fyc sub dup mul add
sqrt def /Fth1 Fy1 Fyc sub Fx1 Fxc sub atan
def /Fth2 Fy2 Fyc sub Fx2 Fxc sub atan def Fe
0 lt Fth2 Fth1 lt and {/Fth1 Fth1 360 sub
def} if Fe 0 gt Fth2 Fth1 gt and {/Fth2 Fth2
360 sub def} if /Fthc Fth1 Fth2 add 2 div def
/Fn Fth2 Fth1 sub abs 180 div pi mul Frr mul
Fr div round def 0 1 Fn {/Fi exch def Fth2
Fth1 sub Fi Fn div mul Fth1 add dup cos Frr
mul Fxc add exch sin Frr mul Fyc add Fr 10
div 0 360 arc fill} for Fthc sin Fe 0 lt
{neg} if Fthc cos Fe 0 gt {neg} if Fbasis Fxc
Fthc cos Frr mul add Fyc Fthc sin Frr mul add
Farrow } def

/Fproton
{/Fy2 exch def /Fx2 exch def /Fy1 exch def
/Fx1 exch def Fx2 Fx1 sub Fy2 Fy1 sub Fbasis
Fx1 Fxt 2 div add Fy1 Fyt 2 div add moveto
Fx2 Fxt 2 div add Fy2 Fyt 2 div add lineto
Fx1 Fxt 2 div sub Fy1 Fyt 2 div sub moveto
Fx2 Fxt 2 div sub Fy2 Fyt 2 div sub lineto
Fx1 Fx2 add 2 div Fxt Fxl sub add Fy1 Fy2 add
2 div Fyt Fyl sub add moveto Fx1 Fx2 add Fxl
add 2 div Fy1 Fy2 add Fyl add 2 div lineto
Fx1 Fx2 add 2 div Fxt Fxl add sub Fy1 Fy2 add
2 div Fyt Fyl add sub lineto stroke} def

/Fmax {2 copy lt {exch} if pop} def
/Fstart {gsave currentpoint
translate 0 0 moveto 0 rm Fr 4 mul
scalefont setfont} def
/Fsubspt {gsave currentpoint Fcharheight 5 div
sub translate 0.6 0.6 scale 0 0 moveto 0} def
/Fsupspt {gsave currentpoint Fcharheight 0.6 mul
add translate 0.6 0.6 scale 0 0 moveto 0} def
/Feend {currentpoint pop Fmax 0.6 mul
grestore currentpoint pop add Fmax} def
/Fendd {pop grestore} def
/Fshow {exch 0 moveto show currentpoint pop} def
/Fcharheight
{gsave (X) true charpath flattenpath pathbbox
3 1 roll pop sub exch pop grestore} def

/Foverline
{exch 0 moveto gsave dup true charpath
flattenpath pathbbox Fcharheight 10 div dup
2 div setlinewidth add dup 4
1 roll newpath moveto pop lineto stroke
grestore show currentpoint pop} def

/Funderline 
{exch 0 moveto gsave dup true charpath
flattenpath pathbbox pop exch Fcharheight
10 div dup 2 div setlinewidth
sub dup 3 1 roll newpath moveto lineto stroke
grestore show currentpoint pop} def

/rm /Times-Roman findfont def
/it /Times-Italic findfont def
/sy /Symbol findfont def

/wedge 
/{ /ystop exch def /xstop exch def /ystart exch def
/xstart exch def /delx xstop xstart sub def /dely 
ystop ystart sub def /dist delx dup mul dely dup 
mul add sqrt def /halfdist dist 2 div def
/angle dely delx atan def xstart ystart moveto 
angle rotate 0 halfdist rlineto dist halfdist
neg rlineto dist neg halfdist neg rlineto 
0 halfdist rlineto }def

/ch_photon
{/ystop exch def /xstop exch def /ystart exch def
/xstart exch def /xmid xstart xstop add 2 div def
/ymid ystart ystop add 2 div def
/dx xstop xstart sub def /dy ystop ystart sub def
/length dx dup mul dy dup mul add sqrt def
/xunit dx length div def /yunit dy length div def
/x1 xmid xunit -4.8 mul add def
/y1 ymid yunit -4.8 mul add def
/x2 xmid xunit 4.8 mul add def
/y2 ymid yunit 4.8 mul add def
/y2 ymid yunit 4.8 mul add def
xstart ystart x1 y1 1 Fphoton 
x2 y2 xstop ystop 1 Fphoton
/x1 xmid xunit -5.2 mul add def 
/y1 ymid yunit -5.2 mul add def
/x2 xmid xunit 5.2 mul add def 
/y2 ymid yunit 5.2 mul add def
gsave x1 y1 x2 y2 wedge fill grestore} def

/ch_higgs 
{ /ystop exch def /xstop exch def /ystart exch def
/xstart exch def 
/xmid xstart xstop add 2 div def
/ymid ystart ystop add 2 div def
/dx xstop xstart sub def /dy ystop ystart sub def
/length dx dup mul dy dup mul add sqrt def
/xunit dx length div def /yunit dy length div def
/x1 xmid xunit -4.8 mul add def 
/y1 ymid yunit -4.8 mul add def
/x2 xmid xunit 4.8 mul add def 
/y2 ymid yunit 4.8 mul add def
xstart ystart x1 y1 Fhiggs 
x2 y2 xstop ystop Fhiggs
/x1 xmid xunit -5.2 mul add def
/y1 ymid yunit -5.2 mul add def
/x2 xmid xunit 5.2 mul add def
/y2 ymid yunit 5.2 mul add def
gsave x1 y1 x2 y2 wedge fill grestore} def
% End of the header

%%Page:       1       1
%%PageBoundingBox:-20 -20 600 800
%%PageFonts: Helvetica

/Helvetica findfont 9 scalefont setfont
 50         770  moveto
 () show
 525         770  moveto
 (page 1/7) show
 260         50  moveto
 (Diagrams made by MadGraph5_aMC@NLO) show
 175.0 635.0 1.5 1.0 Fblob 
 125.0 635.0 1.5 1.0 Fblob 
 275.0 660.0 225.0 685.0 Ffermion 
 252.0  675.5 moveto 
(e+)   show
 283.0  656.0 moveto 
(3)   show
 225.0 685.0 275.0 710 Ffermion 
 238.0  703.5 moveto 
(e-)   show
 283.0  714.0 moveto 
(4)   show
 175.0 635.0 225.0 685.0 0 Fphoton 
 194.0  663.0 moveto 
(z)   show
 228.033008589 595.225243558 175.0 635.0 Ffermion 
 203.516504294  618.112621779 moveto 
(e+)   show
 236.033008589  589.225243558 moveto 
(5)   show
 175.0 635.0 246.151247354 617.212188162 Ffermion 
 212.575623677  629.106094081 moveto 
(e-)   show
 254.151247354  615.212188162 moveto 
(6)   show
 125.0 635.0 175.0 635.0 Fhiggs 
 148.0  638.75 moveto 
(h)   show
 75 560 125.0 635.0 0 Fgluon 
 94.0  600.5 moveto 
(g)   show
 67.0  560 moveto 
(1)   show
 75 710 125.0 635.0 0 Fgluon 
 102.0  675.5 moveto 
(g)   show
 67.0  710 moveto 
(2)   show
 115.0  534.5 moveto 
( diagram 1 )   show
 195.0  534.5 moveto 
 (NP=2, QCD=0, QED=4, SMHLOOP=0)   show
 450.0 635.0 1.5 1.0 Fblob 
 400.0 635.0 1.5 1.0 Fblob 
 550.0 560 500.0 597.5 Ffermion 
 527.0  581.75 moveto 
(e+)   show
 558.0  554.0 moveto 
(3)   show
 500.0 597.5 550.0 610.0 Ffermion 
 513.0  609.75 moveto 
(e-)   show
 558.0  612.0 moveto 
(4)   show
 450.0 635.0 500.0 597.5 0 Fphoton 
 477.0  619.25 moveto 
(a)   show
 550.0 660.0 500.0 672.5 Ffermion 
 527.0  669.25 moveto 
(e+)   show
 558.0  658.0 moveto 
(5)   show
 500.0 672.5 550.0 710 Ffermion 
 513.0  697.25 moveto 
(e-)   show
 558.0  716.0 moveto 
(6)   show
 450.0 635.0 500.0 672.5 0 Fphoton 
 469.0  656.75 moveto 
(a)   show
 400.0 635.0 450.0 635.0 Fhiggs 
 423.0  638.75 moveto 
(h)   show
 350 560 400.0 635.0 0 Fgluon 
 369.0  600.5 moveto 
(g)   show
 342.0  560 moveto 
(1)   show
 350 710 400.0 635.0 0 Fgluon 
 377.0  675.5 moveto 
(g)   show
 342.0  710 moveto 
(2)   show
 390.0  534.5 moveto 
( diagram 2 )   show
 470.0  534.5 moveto 
 (NP=2, QCD=0, QED=4, SMHLOOP=0)   show
 175.0 415.0 1.5 1.0 Fblob 
 125.0 415.0 1.5 1.0 Fblob 
 275.0 340 225.0 377.5 Ffermion 
 252.0  361.75 moveto 
(e+)   show
 283.0  334.0 moveto 
(3)   show
 225.0 377.5 275.0 390.0 Ffermion 
 238.0  389.75 moveto 
(e-)   show
 283.0  392.0 moveto 
(4)   show
 175.0 415.0 225.0 377.5 0 Fphoton 
 202.0  399.25 moveto 
(a)   show
 275.0 440.0 225.0 452.5 Ffermion 
 252.0  449.25 moveto 
(e+)   show
 283.0  438.0 moveto 
(5)   show
 225.0 452.5 275.0 490 Ffermion 
 238.0  477.25 moveto 
(e-)   show
 283.0  496.0 moveto 
(6)   show
 175.0 415.0 225.0 452.5 0 Fphoton 
 194.0  436.75 moveto 
(a)   show
 125.0 415.0 175.0 415.0 Fhiggs 
 148.0  418.75 moveto 
(h)   show
 75 340 125.0 415.0 0 Fgluon 
 94.0  380.5 moveto 
(g)   show
 67.0  340 moveto 
(1)   show
 75 490 125.0 415.0 0 Fgluon 
 102.0  455.5 moveto 
(g)   show
 67.0  490 moveto 
(2)   show
 115.0  314.5 moveto 
( diagram 3 )   show
 195.0  314.5 moveto 
 (NP=2, QCD=0, QED=4, SMHLOOP=0)   show
 450.0 415.0 1.5 1.0 Fblob 
 400.0 415.0 1.5 1.0 Fblob 
 550.0 340 500.0 377.5 Ffermion 
 527.0  361.75 moveto 
(e+)   show
 558.0  334.0 moveto 
(3)   show
 500.0 377.5 550.0 390.0 Ffermion 
 513.0  389.75 moveto 
(e-)   show
 558.0  392.0 moveto 
(4)   show
 450.0 415.0 500.0 377.5 0 Fphoton 
 477.0  399.25 moveto 
(a)   show
 550.0 440.0 500.0 452.5 Ffermion 
 527.0  449.25 moveto 
(e+)   show
 558.0  438.0 moveto 
(5)   show
 500.0 452.5 550.0 490 Ffermion 
 513.0  477.25 moveto 
(e-)   show
 558.0  496.0 moveto 
(6)   show
 450.0 415.0 500.0 452.5 0 Fphoton 
 469.0  436.75 moveto 
(z)   show
 400.0 415.0 450.0 415.0 Fhiggs 
 423.0  418.75 moveto 
(h)   show
 350 340 400.0 415.0 0 Fgluon 
 369.0  380.5 moveto 
(g)   show
 342.0  340 moveto 
(1)   show
 350 490 400.0 415.0 0 Fgluon 
 377.0  455.5 moveto 
(g)   show
 342.0  490 moveto 
(2)   show
 390.0  314.5 moveto 
( diagram 4 )   show
 470.0  314.5 moveto 
 (NP=2, QCD=0, QED=4, SMHLOOP=0)   show
 175.0 195.0 1.5 1.0 Fblob 
 125.0 195.0 1.5 1.0 Fblob 
 275.0 120 225.0 157.5 Ffermion 
 252.0  141.75 moveto 
(e+)   show
 283.0  114.0 moveto 
(3)   show
 225.0 157.5 275.0 170.0 Ffermion 
 238.0  169.75 moveto 
(e-)   show
 283.0  172.0 moveto 
(4)   show
 175.0 195.0 225.0 157.5 0 Fphoton 
 202.0  179.25 moveto 
(a)   show
 275.0 220.0 225.0 232.5 Ffermion 
 252.0  229.25 moveto 
(e+)   show
 283.0  218.0 moveto 
(5)   show
 225.0 232.5 275.0 270 Ffermion 
 238.0  257.25 moveto 
(e-)   show
 283.0  276.0 moveto 
(6)   show
 175.0 195.0 225.0 232.5 0 Fphoton 
 194.0  216.75 moveto 
(z)   show
 125.0 195.0 175.0 195.0 Fhiggs 
 148.0  198.75 moveto 
(h)   show
 75 120 125.0 195.0 0 Fgluon 
 94.0  160.5 moveto 
(g)   show
 67.0  120 moveto 
(1)   show
 75 270 125.0 195.0 0 Fgluon 
 102.0  235.5 moveto 
(g)   show
 67.0  270 moveto 
(2)   show
 115.0  94.5 moveto 
( diagram 5 )   show
 195.0  94.5 moveto 
 (NP=2, QCD=0, QED=4, SMHLOOP=0)   show
 450.0 195.0 1.5 1.0 Fblob 
 400.0 195.0 1.5 1.0 Fblob 
 550.0 120 500.0 157.5 Ffermion 
 527.0  141.75 moveto 
(e+)   show
 558.0  114.0 moveto 
(5)   show
 500.0 157.5 550.0 170.0 Ffermion 
 513.0  169.75 moveto 
(e-)   show
 558.0  172.0 moveto 
(6)   show
 450.0 195.0 500.0 157.5 0 Fphoton 
 477.0  179.25 moveto 
(a)   show
 550.0 220.0 500.0 232.5 Ffermion 
 527.0  229.25 moveto 
(e+)   show
 558.0  218.0 moveto 
(3)   show
 500.0 232.5 550.0 270 Ffermion 
 513.0  257.25 moveto 
(e-)   show
 558.0  276.0 moveto 
(4)   show
 450.0 195.0 500.0 232.5 0 Fphoton 
 469.0  216.75 moveto 
(z)   show
 400.0 195.0 450.0 195.0 Fhiggs 
 423.0  198.75 moveto 
(h)   show
 350 120 400.0 195.0 0 Fgluon 
 369.0  160.5 moveto 
(g)   show
 342.0  120 moveto 
(1)   show
 350 270 400.0 195.0 0 Fgluon 
 377.0  235.5 moveto 
(g)   show
 342.0  270 moveto 
(2)   show
 390.0  94.5 moveto 
( diagram 6 )   show
 470.0  94.5 moveto 
 (NP=2, QCD=0, QED=4, SMHLOOP=0)   show
showpage
%%Page: 2 2 
%%PageBoundingBox:-20 -20 600 800
%%PageFonts: Helvetica
/Helvetica findfont 9 scalefont setfont
 50         770  moveto
 () show
 525         770  moveto
 (page 2/7) show
 260         40  moveto
 (Diagrams made by MadGraph5_aMC@NLO) show
 175.0 635.0 1.5 1.0 Fblob 
 125.0 635.0 1.5 1.0 Fblob 
 275.0 560 225.0 597.5 Ffermion 
 252.0  581.75 moveto 
(e+)   show
 283.0  554.0 moveto 
(5)   show
 225.0 597.5 275.0 610.0 Ffermion 
 238.0  609.75 moveto 
(e-)   show
 283.0  612.0 moveto 
(6)   show
 175.0 635.0 225.0 597.5 0 Fphoton 
 202.0  619.25 moveto 
(a)   show
 275.0 660.0 225.0 672.5 Ffermion 
 252.0  669.25 moveto 
(e+)   show
 283.0  658.0 moveto 
(3)   show
 225.0 672.5 275.0 710 Ffermion 
 238.0  697.25 moveto 
(e-)   show
 283.0  716.0 moveto 
(4)   show
 175.0 635.0 225.0 672.5 0 Fphoton 
 194.0  656.75 moveto 
(z)   show
 125.0 635.0 175.0 635.0 Fhiggs 
 148.0  638.75 moveto 
(h)   show
 75 560 125.0 635.0 0 Fgluon 
 94.0  600.5 moveto 
(g)   show
 67.0  560 moveto 
(1)   show
 75 710 125.0 635.0 0 Fgluon 
 102.0  675.5 moveto 
(g)   show
 67.0  710 moveto 
(2)   show
 115.0  534.5 moveto 
( diagram 7 )   show
 195.0  534.5 moveto 
 (NP=2, QCD=0, QED=4, SMHLOOP=0)   show
 400.0 635.0 1.5 1.0 Fblob 
 550.0 560 500.0 597.5 Ffermion 
 527.0  581.75 moveto 
(e+)   show
 558.0  554.0 moveto 
(3)   show
 500.0 597.5 550.0 610.0 Ffermion 
 513.0  609.75 moveto 
(e-)   show
 558.0  612.0 moveto 
(4)   show
 450.0 635.0 500.0 597.5 0 Fphoton 
 477.0  619.25 moveto 
(z)   show
 550.0 660.0 500.0 672.5 Ffermion 
 527.0  669.25 moveto 
(e+)   show
 558.0  658.0 moveto 
(5)   show
 500.0 672.5 550.0 710 Ffermion 
 513.0  697.25 moveto 
(e-)   show
 558.0  716.0 moveto 
(6)   show
 450.0 635.0 500.0 672.5 0 Fphoton 
 469.0  656.75 moveto 
(z)   show
 400.0 635.0 450.0 635.0 Fhiggs 
 423.0  638.75 moveto 
(h)   show
 350 560 400.0 635.0 0 Fgluon 
 369.0  600.5 moveto 
(g)   show
 342.0  560 moveto 
(1)   show
 350 710 400.0 635.0 0 Fgluon 
 377.0  675.5 moveto 
(g)   show
 342.0  710 moveto 
(2)   show
 390.0  534.5 moveto 
( diagram 8 )   show
 470.0  534.5 moveto 
 (NP=1, QCD=0, QED=4, SMHLOOP=0)   show
 175.0 415.0 1.5 1.0 Fblob 
 125.0 415.0 1.5 1.0 Fblob 
 275.0 340 225.0 377.5 Ffermion 
 252.0  361.75 moveto 
(e+)   show
 283.0  334.0 moveto 
(3)   show
 225.0 377.5 275.0 390.0 Ffermion 
 238.0  389.75 moveto 
(e-)   show
 283.0  392.0 moveto 
(4)   show
 175.0 415.0 225.0 377.5 0 Fphoton 
 202.0  399.25 moveto 
(z)   show
 275.0 440.0 225.0 452.5 Ffermion 
 252.0  449.25 moveto 
(e+)   show
 283.0  438.0 moveto 
(5)   show
 225.0 452.5 275.0 490 Ffermion 
 238.0  477.25 moveto 
(e-)   show
 283.0  496.0 moveto 
(6)   show
 175.0 415.0 225.0 452.5 0 Fphoton 
 194.0  436.75 moveto 
(z)   show
 125.0 415.0 175.0 415.0 Fhiggs 
 148.0  418.75 moveto 
(h)   show
 75 340 125.0 415.0 0 Fgluon 
 94.0  380.5 moveto 
(g)   show
 67.0  340 moveto 
(1)   show
 75 490 125.0 415.0 0 Fgluon 
 102.0  455.5 moveto 
(g)   show
 67.0  490 moveto 
(2)   show
 115.0  314.5 moveto 
( diagram 9 )   show
 195.0  314.5 moveto 
 (NP=2, QCD=0, QED=4, SMHLOOP=0)   show
 450.0 415.0 1.5 1.0 Fblob 
 400.0 415.0 1.5 1.0 Fblob 
 550.0 340 500.0 377.5 Ffermion 
 527.0  361.75 moveto 
(e+)   show
 558.0  334.0 moveto 
(3)   show
 500.0 377.5 550.0 390.0 Ffermion 
 513.0  389.75 moveto 
(e-)   show
 558.0  392.0 moveto 
(4)   show
 450.0 415.0 500.0 377.5 0 Fphoton 
 477.0  399.25 moveto 
(z)   show
 550.0 440.0 500.0 452.5 Ffermion 
 527.0  449.25 moveto 
(e+)   show
 558.0  438.0 moveto 
(5)   show
 500.0 452.5 550.0 490 Ffermion 
 513.0  477.25 moveto 
(e-)   show
 558.0  496.0 moveto 
(6)   show
 450.0 415.0 500.0 452.5 0 Fphoton 
 469.0  436.75 moveto 
(z)   show
 400.0 415.0 450.0 415.0 Fhiggs 
 423.0  418.75 moveto 
(h)   show
 350 340 400.0 415.0 0 Fgluon 
 369.0  380.5 moveto 
(g)   show
 342.0  340 moveto 
(1)   show
 350 490 400.0 415.0 0 Fgluon 
 377.0  455.5 moveto 
(g)   show
 342.0  490 moveto 
(2)   show
 390.0  314.5 moveto 
( diagram 10 )   show
 470.0  314.5 moveto 
 (NP=2, QCD=0, QED=4, SMHLOOP=0)   show
 225.0 232.5 1.5 1.0 Fblob 
 125.0 195.0 1.5 1.0 Fblob 
 275.0 120 225.0 157.5 Ffermion 
 252.0  141.75 moveto 
(e+)   show
 283.0  114.0 moveto 
(3)   show
 225.0 157.5 275.0 170.0 Ffermion 
 238.0  169.75 moveto 
(e-)   show
 283.0  172.0 moveto 
(4)   show
 175.0 195.0 225.0 157.5 0 Fphoton 
 202.0  179.25 moveto 
(z)   show
 275.0 220.0 225.0 232.5 Ffermion 
 252.0  229.25 moveto 
(e+)   show
 283.0  218.0 moveto 
(5)   show
 225.0 232.5 275.0 270 Ffermion 
 238.0  257.25 moveto 
(e-)   show
 283.0  276.0 moveto 
(6)   show
 175.0 195.0 225.0 232.5 0 Fphoton 
 194.0  216.75 moveto 
(z)   show
 125.0 195.0 175.0 195.0 Fhiggs 
 148.0  198.75 moveto 
(h)   show
 75 120 125.0 195.0 0 Fgluon 
 94.0  160.5 moveto 
(g)   show
 67.0  120 moveto 
(1)   show
 75 270 125.0 195.0 0 Fgluon 
 102.0  235.5 moveto 
(g)   show
 67.0  270 moveto 
(2)   show
 115.0  94.5 moveto 
( diagram 11 )   show
 195.0  94.5 moveto 
 (NP=2, QCD=0, QED=4, SMHLOOP=0)   show
 500.0 232.5 1.5 1.0 Fblob 
 400.0 195.0 1.5 1.0 Fblob 
 550.0 120 500.0 157.5 Ffermion 
 527.0  141.75 moveto 
(e+)   show
 558.0  114.0 moveto 
(3)   show
 500.0 157.5 550.0 170.0 Ffermion 
 513.0  169.75 moveto 
(e-)   show
 558.0  172.0 moveto 
(4)   show
 450.0 195.0 500.0 157.5 0 Fphoton 
 477.0  179.25 moveto 
(z)   show
 550.0 220.0 500.0 232.5 Ffermion 
 527.0  229.25 moveto 
(e+)   show
 558.0  218.0 moveto 
(5)   show
 500.0 232.5 550.0 270 Ffermion 
 513.0  257.25 moveto 
(e-)   show
 558.0  276.0 moveto 
(6)   show
 450.0 195.0 500.0 232.5 0 Fphoton 
 469.0  216.75 moveto 
(z)   show
 400.0 195.0 450.0 195.0 Fhiggs 
 423.0  198.75 moveto 
(h)   show
 350 120 400.0 195.0 0 Fgluon 
 369.0  160.5 moveto 
(g)   show
 342.0  120 moveto 
(1)   show
 350 270 400.0 195.0 0 Fgluon 
 377.0  235.5 moveto 
(g)   show
 342.0  270 moveto 
(2)   show
 390.0  94.5 moveto 
( diagram 12 )   show
 470.0  94.5 moveto 
 (NP=2, QCD=0, QED=4, SMHLOOP=0)   show
showpage
%%Page: 3 3 
%%PageBoundingBox:-20 -20 600 800
%%PageFonts: Helvetica
/Helvetica findfont 9 scalefont setfont
 50         770  moveto
 () show
 525         770  moveto
 (page 3/7) show
 260         40  moveto
 (Diagrams made by MadGraph5_aMC@NLO) show
 225.0 597.5 1.5 1.0 Fblob 
 125.0 635.0 1.5 1.0 Fblob 
 275.0 560 225.0 597.5 Ffermion 
 252.0  581.75 moveto 
(e+)   show
 283.0  554.0 moveto 
(3)   show
 225.0 597.5 275.0 610.0 Ffermion 
 238.0  609.75 moveto 
(e-)   show
 283.0  612.0 moveto 
(4)   show
 175.0 635.0 225.0 597.5 0 Fphoton 
 202.0  619.25 moveto 
(z)   show
 275.0 660.0 225.0 672.5 Ffermion 
 252.0  669.25 moveto 
(e+)   show
 283.0  658.0 moveto 
(5)   show
 225.0 672.5 275.0 710 Ffermion 
 238.0  697.25 moveto 
(e-)   show
 283.0  716.0 moveto 
(6)   show
 175.0 635.0 225.0 672.5 0 Fphoton 
 194.0  656.75 moveto 
(z)   show
 125.0 635.0 175.0 635.0 Fhiggs 
 148.0  638.75 moveto 
(h)   show
 75 560 125.0 635.0 0 Fgluon 
 94.0  600.5 moveto 
(g)   show
 67.0  560 moveto 
(1)   show
 75 710 125.0 635.0 0 Fgluon 
 102.0  675.5 moveto 
(g)   show
 67.0  710 moveto 
(2)   show
 115.0  534.5 moveto 
( diagram 13 )   show
 195.0  534.5 moveto 
 (NP=2, QCD=0, QED=4, SMHLOOP=0)   show
 500.0 597.5 1.5 1.0 Fblob 
 400.0 635.0 1.5 1.0 Fblob 
 550.0 560 500.0 597.5 Ffermion 
 527.0  581.75 moveto 
(e+)   show
 558.0  554.0 moveto 
(3)   show
 500.0 597.5 550.0 610.0 Ffermion 
 513.0  609.75 moveto 
(e-)   show
 558.0  612.0 moveto 
(4)   show
 450.0 635.0 500.0 597.5 0 Fphoton 
 477.0  619.25 moveto 
(z)   show
 550.0 660.0 500.0 672.5 Ffermion 
 527.0  669.25 moveto 
(e+)   show
 558.0  658.0 moveto 
(5)   show
 500.0 672.5 550.0 710 Ffermion 
 513.0  697.25 moveto 
(e-)   show
 558.0  716.0 moveto 
(6)   show
 450.0 635.0 500.0 672.5 0 Fphoton 
 469.0  656.75 moveto 
(z)   show
 400.0 635.0 450.0 635.0 Fhiggs 
 423.0  638.75 moveto 
(h)   show
 350 560 400.0 635.0 0 Fgluon 
 369.0  600.5 moveto 
(g)   show
 342.0  560 moveto 
(1)   show
 350 710 400.0 635.0 0 Fgluon 
 377.0  675.5 moveto 
(g)   show
 342.0  710 moveto 
(2)   show
 390.0  534.5 moveto 
( diagram 14 )   show
 470.0  534.5 moveto 
 (NP=2, QCD=0, QED=4, SMHLOOP=0)   show
 175.0 415.0 1.5 1.0 Fblob 
 125.0 415.0 1.5 1.0 Fblob 
 275.0 440.0 225.0 465.0 Ffermion 
 252.0  455.5 moveto 
(e+)   show
 283.0  436.0 moveto 
(3)   show
 225.0 465.0 275.0 490 Ffermion 
 238.0  483.5 moveto 
(e-)   show
 283.0  494.0 moveto 
(6)   show
 175.0 415.0 225.0 465.0 0 Fphoton 
 194.0  443.0 moveto 
(z)   show
 228.033008589 375.225243558 175.0 415.0 Ffermion 
 203.516504294  398.112621779 moveto 
(e+)   show
 236.033008589  369.225243558 moveto 
(5)   show
 175.0 415.0 246.151247354 397.212188162 Ffermion 
 212.575623677  409.106094081 moveto 
(e-)   show
 254.151247354  395.212188162 moveto 
(4)   show
 125.0 415.0 175.0 415.0 Fhiggs 
 148.0  418.75 moveto 
(h)   show
 75 340 125.0 415.0 0 Fgluon 
 94.0  380.5 moveto 
(g)   show
 67.0  340 moveto 
(1)   show
 75 490 125.0 415.0 0 Fgluon 
 102.0  455.5 moveto 
(g)   show
 67.0  490 moveto 
(2)   show
 115.0  314.5 moveto 
( diagram 15 )   show
 195.0  314.5 moveto 
 (NP=2, QCD=0, QED=4, SMHLOOP=0)   show
 450.0 415.0 1.5 1.0 Fblob 
 400.0 415.0 1.5 1.0 Fblob 
 550.0 340 500.0 377.5 Ffermion 
 527.0  361.75 moveto 
(e+)   show
 558.0  334.0 moveto 
(3)   show
 500.0 377.5 550.0 390.0 Ffermion 
 513.0  389.75 moveto 
(e-)   show
 558.0  392.0 moveto 
(6)   show
 450.0 415.0 500.0 377.5 0 Fphoton 
 477.0  399.25 moveto 
(a)   show
 550.0 440.0 500.0 452.5 Ffermion 
 527.0  449.25 moveto 
(e+)   show
 558.0  438.0 moveto 
(5)   show
 500.0 452.5 550.0 490 Ffermion 
 513.0  477.25 moveto 
(e-)   show
 558.0  496.0 moveto 
(4)   show
 450.0 415.0 500.0 452.5 0 Fphoton 
 469.0  436.75 moveto 
(a)   show
 400.0 415.0 450.0 415.0 Fhiggs 
 423.0  418.75 moveto 
(h)   show
 350 340 400.0 415.0 0 Fgluon 
 369.0  380.5 moveto 
(g)   show
 342.0  340 moveto 
(1)   show
 350 490 400.0 415.0 0 Fgluon 
 377.0  455.5 moveto 
(g)   show
 342.0  490 moveto 
(2)   show
 390.0  314.5 moveto 
( diagram 16 )   show
 470.0  314.5 moveto 
 (NP=2, QCD=0, QED=4, SMHLOOP=0)   show
 175.0 195.0 1.5 1.0 Fblob 
 125.0 195.0 1.5 1.0 Fblob 
 275.0 120 225.0 157.5 Ffermion 
 252.0  141.75 moveto 
(e+)   show
 283.0  114.0 moveto 
(3)   show
 225.0 157.5 275.0 170.0 Ffermion 
 238.0  169.75 moveto 
(e-)   show
 283.0  172.0 moveto 
(6)   show
 175.0 195.0 225.0 157.5 0 Fphoton 
 202.0  179.25 moveto 
(a)   show
 275.0 220.0 225.0 232.5 Ffermion 
 252.0  229.25 moveto 
(e+)   show
 283.0  218.0 moveto 
(5)   show
 225.0 232.5 275.0 270 Ffermion 
 238.0  257.25 moveto 
(e-)   show
 283.0  276.0 moveto 
(4)   show
 175.0 195.0 225.0 232.5 0 Fphoton 
 194.0  216.75 moveto 
(a)   show
 125.0 195.0 175.0 195.0 Fhiggs 
 148.0  198.75 moveto 
(h)   show
 75 120 125.0 195.0 0 Fgluon 
 94.0  160.5 moveto 
(g)   show
 67.0  120 moveto 
(1)   show
 75 270 125.0 195.0 0 Fgluon 
 102.0  235.5 moveto 
(g)   show
 67.0  270 moveto 
(2)   show
 115.0  94.5 moveto 
( diagram 17 )   show
 195.0  94.5 moveto 
 (NP=2, QCD=0, QED=4, SMHLOOP=0)   show
 450.0 195.0 1.5 1.0 Fblob 
 400.0 195.0 1.5 1.0 Fblob 
 550.0 120 500.0 157.5 Ffermion 
 527.0  141.75 moveto 
(e+)   show
 558.0  114.0 moveto 
(3)   show
 500.0 157.5 550.0 170.0 Ffermion 
 513.0  169.75 moveto 
(e-)   show
 558.0  172.0 moveto 
(6)   show
 450.0 195.0 500.0 157.5 0 Fphoton 
 477.0  179.25 moveto 
(a)   show
 550.0 220.0 500.0 232.5 Ffermion 
 527.0  229.25 moveto 
(e+)   show
 558.0  218.0 moveto 
(5)   show
 500.0 232.5 550.0 270 Ffermion 
 513.0  257.25 moveto 
(e-)   show
 558.0  276.0 moveto 
(4)   show
 450.0 195.0 500.0 232.5 0 Fphoton 
 469.0  216.75 moveto 
(z)   show
 400.0 195.0 450.0 195.0 Fhiggs 
 423.0  198.75 moveto 
(h)   show
 350 120 400.0 195.0 0 Fgluon 
 369.0  160.5 moveto 
(g)   show
 342.0  120 moveto 
(1)   show
 350 270 400.0 195.0 0 Fgluon 
 377.0  235.5 moveto 
(g)   show
 342.0  270 moveto 
(2)   show
 390.0  94.5 moveto 
( diagram 18 )   show
 470.0  94.5 moveto 
 (NP=2, QCD=0, QED=4, SMHLOOP=0)   show
showpage
%%Page: 4 4 
%%PageBoundingBox:-20 -20 600 800
%%PageFonts: Helvetica
/Helvetica findfont 9 scalefont setfont
 50         770  moveto
 () show
 525         770  moveto
 (page 4/7) show
 260         40  moveto
 (Diagrams made by MadGraph5_aMC@NLO) show
 175.0 635.0 1.5 1.0 Fblob 
 125.0 635.0 1.5 1.0 Fblob 
 275.0 560 225.0 597.5 Ffermion 
 252.0  581.75 moveto 
(e+)   show
 283.0  554.0 moveto 
(3)   show
 225.0 597.5 275.0 610.0 Ffermion 
 238.0  609.75 moveto 
(e-)   show
 283.0  612.0 moveto 
(6)   show
 175.0 635.0 225.0 597.5 0 Fphoton 
 202.0  619.25 moveto 
(a)   show
 275.0 660.0 225.0 672.5 Ffermion 
 252.0  669.25 moveto 
(e+)   show
 283.0  658.0 moveto 
(5)   show
 225.0 672.5 275.0 710 Ffermion 
 238.0  697.25 moveto 
(e-)   show
 283.0  716.0 moveto 
(4)   show
 175.0 635.0 225.0 672.5 0 Fphoton 
 194.0  656.75 moveto 
(z)   show
 125.0 635.0 175.0 635.0 Fhiggs 
 148.0  638.75 moveto 
(h)   show
 75 560 125.0 635.0 0 Fgluon 
 94.0  600.5 moveto 
(g)   show
 67.0  560 moveto 
(1)   show
 75 710 125.0 635.0 0 Fgluon 
 102.0  675.5 moveto 
(g)   show
 67.0  710 moveto 
(2)   show
 115.0  534.5 moveto 
( diagram 19 )   show
 195.0  534.5 moveto 
 (NP=2, QCD=0, QED=4, SMHLOOP=0)   show
 450.0 635.0 1.5 1.0 Fblob 
 400.0 635.0 1.5 1.0 Fblob 
 550.0 560 500.0 597.5 Ffermion 
 527.0  581.75 moveto 
(e+)   show
 558.0  554.0 moveto 
(5)   show
 500.0 597.5 550.0 610.0 Ffermion 
 513.0  609.75 moveto 
(e-)   show
 558.0  612.0 moveto 
(4)   show
 450.0 635.0 500.0 597.5 0 Fphoton 
 477.0  619.25 moveto 
(a)   show
 550.0 660.0 500.0 672.5 Ffermion 
 527.0  669.25 moveto 
(e+)   show
 558.0  658.0 moveto 
(3)   show
 500.0 672.5 550.0 710 Ffermion 
 513.0  697.25 moveto 
(e-)   show
 558.0  716.0 moveto 
(6)   show
 450.0 635.0 500.0 672.5 0 Fphoton 
 469.0  656.75 moveto 
(z)   show
 400.0 635.0 450.0 635.0 Fhiggs 
 423.0  638.75 moveto 
(h)   show
 350 560 400.0 635.0 0 Fgluon 
 369.0  600.5 moveto 
(g)   show
 342.0  560 moveto 
(1)   show
 350 710 400.0 635.0 0 Fgluon 
 377.0  675.5 moveto 
(g)   show
 342.0  710 moveto 
(2)   show
 390.0  534.5 moveto 
( diagram 20 )   show
 470.0  534.5 moveto 
 (NP=2, QCD=0, QED=4, SMHLOOP=0)   show
 175.0 415.0 1.5 1.0 Fblob 
 125.0 415.0 1.5 1.0 Fblob 
 275.0 340 225.0 377.5 Ffermion 
 252.0  361.75 moveto 
(e+)   show
 283.0  334.0 moveto 
(5)   show
 225.0 377.5 275.0 390.0 Ffermion 
 238.0  389.75 moveto 
(e-)   show
 283.0  392.0 moveto 
(4)   show
 175.0 415.0 225.0 377.5 0 Fphoton 
 202.0  399.25 moveto 
(a)   show
 275.0 440.0 225.0 452.5 Ffermion 
 252.0  449.25 moveto 
(e+)   show
 283.0  438.0 moveto 
(3)   show
 225.0 452.5 275.0 490 Ffermion 
 238.0  477.25 moveto 
(e-)   show
 283.0  496.0 moveto 
(6)   show
 175.0 415.0 225.0 452.5 0 Fphoton 
 194.0  436.75 moveto 
(z)   show
 125.0 415.0 175.0 415.0 Fhiggs 
 148.0  418.75 moveto 
(h)   show
 75 340 125.0 415.0 0 Fgluon 
 94.0  380.5 moveto 
(g)   show
 67.0  340 moveto 
(1)   show
 75 490 125.0 415.0 0 Fgluon 
 102.0  455.5 moveto 
(g)   show
 67.0  490 moveto 
(2)   show
 115.0  314.5 moveto 
( diagram 21 )   show
 195.0  314.5 moveto 
 (NP=2, QCD=0, QED=4, SMHLOOP=0)   show
 400.0 415.0 1.5 1.0 Fblob 
 550.0 340 500.0 377.5 Ffermion 
 527.0  361.75 moveto 
(e+)   show
 558.0  334.0 moveto 
(3)   show
 500.0 377.5 550.0 390.0 Ffermion 
 513.0  389.75 moveto 
(e-)   show
 558.0  392.0 moveto 
(6)   show
 450.0 415.0 500.0 377.5 0 Fphoton 
 477.0  399.25 moveto 
(z)   show
 550.0 440.0 500.0 452.5 Ffermion 
 527.0  449.25 moveto 
(e+)   show
 558.0  438.0 moveto 
(5)   show
 500.0 452.5 550.0 490 Ffermion 
 513.0  477.25 moveto 
(e-)   show
 558.0  496.0 moveto 
(4)   show
 450.0 415.0 500.0 452.5 0 Fphoton 
 469.0  436.75 moveto 
(z)   show
 400.0 415.0 450.0 415.0 Fhiggs 
 423.0  418.75 moveto 
(h)   show
 350 340 400.0 415.0 0 Fgluon 
 369.0  380.5 moveto 
(g)   show
 342.0  340 moveto 
(1)   show
 350 490 400.0 415.0 0 Fgluon 
 377.0  455.5 moveto 
(g)   show
 342.0  490 moveto 
(2)   show
 390.0  314.5 moveto 
( diagram 22 )   show
 470.0  314.5 moveto 
 (NP=1, QCD=0, QED=4, SMHLOOP=0)   show
 175.0 195.0 1.5 1.0 Fblob 
 125.0 195.0 1.5 1.0 Fblob 
 275.0 120 225.0 157.5 Ffermion 
 252.0  141.75 moveto 
(e+)   show
 283.0  114.0 moveto 
(3)   show
 225.0 157.5 275.0 170.0 Ffermion 
 238.0  169.75 moveto 
(e-)   show
 283.0  172.0 moveto 
(6)   show
 175.0 195.0 225.0 157.5 0 Fphoton 
 202.0  179.25 moveto 
(z)   show
 275.0 220.0 225.0 232.5 Ffermion 
 252.0  229.25 moveto 
(e+)   show
 283.0  218.0 moveto 
(5)   show
 225.0 232.5 275.0 270 Ffermion 
 238.0  257.25 moveto 
(e-)   show
 283.0  276.0 moveto 
(4)   show
 175.0 195.0 225.0 232.5 0 Fphoton 
 194.0  216.75 moveto 
(z)   show
 125.0 195.0 175.0 195.0 Fhiggs 
 148.0  198.75 moveto 
(h)   show
 75 120 125.0 195.0 0 Fgluon 
 94.0  160.5 moveto 
(g)   show
 67.0  120 moveto 
(1)   show
 75 270 125.0 195.0 0 Fgluon 
 102.0  235.5 moveto 
(g)   show
 67.0  270 moveto 
(2)   show
 115.0  94.5 moveto 
( diagram 23 )   show
 195.0  94.5 moveto 
 (NP=2, QCD=0, QED=4, SMHLOOP=0)   show
 450.0 195.0 1.5 1.0 Fblob 
 400.0 195.0 1.5 1.0 Fblob 
 550.0 120 500.0 157.5 Ffermion 
 527.0  141.75 moveto 
(e+)   show
 558.0  114.0 moveto 
(3)   show
 500.0 157.5 550.0 170.0 Ffermion 
 513.0  169.75 moveto 
(e-)   show
 558.0  172.0 moveto 
(6)   show
 450.0 195.0 500.0 157.5 0 Fphoton 
 477.0  179.25 moveto 
(z)   show
 550.0 220.0 500.0 232.5 Ffermion 
 527.0  229.25 moveto 
(e+)   show
 558.0  218.0 moveto 
(5)   show
 500.0 232.5 550.0 270 Ffermion 
 513.0  257.25 moveto 
(e-)   show
 558.0  276.0 moveto 
(4)   show
 450.0 195.0 500.0 232.5 0 Fphoton 
 469.0  216.75 moveto 
(z)   show
 400.0 195.0 450.0 195.0 Fhiggs 
 423.0  198.75 moveto 
(h)   show
 350 120 400.0 195.0 0 Fgluon 
 369.0  160.5 moveto 
(g)   show
 342.0  120 moveto 
(1)   show
 350 270 400.0 195.0 0 Fgluon 
 377.0  235.5 moveto 
(g)   show
 342.0  270 moveto 
(2)   show
 390.0  94.5 moveto 
( diagram 24 )   show
 470.0  94.5 moveto 
 (NP=2, QCD=0, QED=4, SMHLOOP=0)   show
showpage
%%Page: 5 5 
%%PageBoundingBox:-20 -20 600 800
%%PageFonts: Helvetica
/Helvetica findfont 9 scalefont setfont
 50         770  moveto
 () show
 525         770  moveto
 (page 5/7) show
 260         40  moveto
 (Diagrams made by MadGraph5_aMC@NLO) show
 225.0 672.5 1.5 1.0 Fblob 
 125.0 635.0 1.5 1.0 Fblob 
 275.0 560 225.0 597.5 Ffermion 
 252.0  581.75 moveto 
(e+)   show
 283.0  554.0 moveto 
(3)   show
 225.0 597.5 275.0 610.0 Ffermion 
 238.0  609.75 moveto 
(e-)   show
 283.0  612.0 moveto 
(6)   show
 175.0 635.0 225.0 597.5 0 Fphoton 
 202.0  619.25 moveto 
(z)   show
 275.0 660.0 225.0 672.5 Ffermion 
 252.0  669.25 moveto 
(e+)   show
 283.0  658.0 moveto 
(5)   show
 225.0 672.5 275.0 710 Ffermion 
 238.0  697.25 moveto 
(e-)   show
 283.0  716.0 moveto 
(4)   show
 175.0 635.0 225.0 672.5 0 Fphoton 
 194.0  656.75 moveto 
(z)   show
 125.0 635.0 175.0 635.0 Fhiggs 
 148.0  638.75 moveto 
(h)   show
 75 560 125.0 635.0 0 Fgluon 
 94.0  600.5 moveto 
(g)   show
 67.0  560 moveto 
(1)   show
 75 710 125.0 635.0 0 Fgluon 
 102.0  675.5 moveto 
(g)   show
 67.0  710 moveto 
(2)   show
 115.0  534.5 moveto 
( diagram 25 )   show
 195.0  534.5 moveto 
 (NP=2, QCD=0, QED=4, SMHLOOP=0)   show
 500.0 672.5 1.5 1.0 Fblob 
 400.0 635.0 1.5 1.0 Fblob 
 550.0 560 500.0 597.5 Ffermion 
 527.0  581.75 moveto 
(e+)   show
 558.0  554.0 moveto 
(3)   show
 500.0 597.5 550.0 610.0 Ffermion 
 513.0  609.75 moveto 
(e-)   show
 558.0  612.0 moveto 
(6)   show
 450.0 635.0 500.0 597.5 0 Fphoton 
 477.0  619.25 moveto 
(z)   show
 550.0 660.0 500.0 672.5 Ffermion 
 527.0  669.25 moveto 
(e+)   show
 558.0  658.0 moveto 
(5)   show
 500.0 672.5 550.0 710 Ffermion 
 513.0  697.25 moveto 
(e-)   show
 558.0  716.0 moveto 
(4)   show
 450.0 635.0 500.0 672.5 0 Fphoton 
 469.0  656.75 moveto 
(z)   show
 400.0 635.0 450.0 635.0 Fhiggs 
 423.0  638.75 moveto 
(h)   show
 350 560 400.0 635.0 0 Fgluon 
 369.0  600.5 moveto 
(g)   show
 342.0  560 moveto 
(1)   show
 350 710 400.0 635.0 0 Fgluon 
 377.0  675.5 moveto 
(g)   show
 342.0  710 moveto 
(2)   show
 390.0  534.5 moveto 
( diagram 26 )   show
 470.0  534.5 moveto 
 (NP=2, QCD=0, QED=4, SMHLOOP=0)   show
 225.0 377.5 1.5 1.0 Fblob 
 125.0 415.0 1.5 1.0 Fblob 
 275.0 340 225.0 377.5 Ffermion 
 252.0  361.75 moveto 
(e+)   show
 283.0  334.0 moveto 
(3)   show
 225.0 377.5 275.0 390.0 Ffermion 
 238.0  389.75 moveto 
(e-)   show
 283.0  392.0 moveto 
(6)   show
 175.0 415.0 225.0 377.5 0 Fphoton 
 202.0  399.25 moveto 
(z)   show
 275.0 440.0 225.0 452.5 Ffermion 
 252.0  449.25 moveto 
(e+)   show
 283.0  438.0 moveto 
(5)   show
 225.0 452.5 275.0 490 Ffermion 
 238.0  477.25 moveto 
(e-)   show
 283.0  496.0 moveto 
(4)   show
 175.0 415.0 225.0 452.5 0 Fphoton 
 194.0  436.75 moveto 
(z)   show
 125.0 415.0 175.0 415.0 Fhiggs 
 148.0  418.75 moveto 
(h)   show
 75 340 125.0 415.0 0 Fgluon 
 94.0  380.5 moveto 
(g)   show
 67.0  340 moveto 
(1)   show
 75 490 125.0 415.0 0 Fgluon 
 102.0  455.5 moveto 
(g)   show
 67.0  490 moveto 
(2)   show
 115.0  314.5 moveto 
( diagram 27 )   show
 195.0  314.5 moveto 
 (NP=2, QCD=0, QED=4, SMHLOOP=0)   show
 500.0 377.5 1.5 1.0 Fblob 
 400.0 415.0 1.5 1.0 Fblob 
 550.0 340 500.0 377.5 Ffermion 
 527.0  361.75 moveto 
(e+)   show
 558.0  334.0 moveto 
(3)   show
 500.0 377.5 550.0 390.0 Ffermion 
 513.0  389.75 moveto 
(e-)   show
 558.0  392.0 moveto 
(6)   show
 450.0 415.0 500.0 377.5 0 Fphoton 
 477.0  399.25 moveto 
(z)   show
 550.0 440.0 500.0 452.5 Ffermion 
 527.0  449.25 moveto 
(e+)   show
 558.0  438.0 moveto 
(5)   show
 500.0 452.5 550.0 490 Ffermion 
 513.0  477.25 moveto 
(e-)   show
 558.0  496.0 moveto 
(4)   show
 450.0 415.0 500.0 452.5 0 Fphoton 
 469.0  436.75 moveto 
(z)   show
 400.0 415.0 450.0 415.0 Fhiggs 
 423.0  418.75 moveto 
(h)   show
 350 340 400.0 415.0 0 Fgluon 
 369.0  380.5 moveto 
(g)   show
 342.0  340 moveto 
(1)   show
 350 490 400.0 415.0 0 Fgluon 
 377.0  455.5 moveto 
(g)   show
 342.0  490 moveto 
(2)   show
 390.0  314.5 moveto 
( diagram 28 )   show
 470.0  314.5 moveto 
 (NP=2, QCD=0, QED=4, SMHLOOP=0)   show
 175.0 195.0 1.5 1.0 Fblob 
 125.0 195.0 1.5 1.0 Fblob 
 275.0 220.0 225.0 245.0 Ffermion 
 252.0  235.5 moveto 
(e+)   show
 283.0  216.0 moveto 
(5)   show
 225.0 245.0 275.0 270 Ffermion 
 238.0  263.5 moveto 
(e-)   show
 283.0  274.0 moveto 
(4)   show
 175.0 195.0 225.0 245.0 0 Fphoton 
 194.0  223.0 moveto 
(z)   show
 228.033008589 155.225243558 175.0 195.0 Ffermion 
 203.516504294  178.112621779 moveto 
(e+)   show
 236.033008589  149.225243558 moveto 
(3)   show
 175.0 195.0 246.151247354 177.212188162 Ffermion 
 212.575623677  189.106094081 moveto 
(e-)   show
 254.151247354  175.212188162 moveto 
(6)   show
 125.0 195.0 175.0 195.0 Fhiggs 
 148.0  198.75 moveto 
(h)   show
 75 120 125.0 195.0 0 Fgluon 
 94.0  160.5 moveto 
(g)   show
 67.0  120 moveto 
(1)   show
 75 270 125.0 195.0 0 Fgluon 
 102.0  235.5 moveto 
(g)   show
 67.0  270 moveto 
(2)   show
 115.0  94.5 moveto 
( diagram 29 )   show
 195.0  94.5 moveto 
 (NP=2, QCD=0, QED=4, SMHLOOP=0)   show
 450.0 195.0 1.5 1.0 Fblob 
 400.0 195.0 1.5 1.0 Fblob 
 550.0 220.0 500.0 245.0 Ffermion 
 527.0  235.5 moveto 
(e+)   show
 558.0  216.0 moveto 
(5)   show
 500.0 245.0 550.0 270 Ffermion 
 513.0  263.5 moveto 
(e-)   show
 558.0  274.0 moveto 
(6)   show
 450.0 195.0 500.0 245.0 0 Fphoton 
 469.0  223.0 moveto 
(z)   show
 503.033008589 155.225243558 450.0 195.0 Ffermion 
 478.516504294  178.112621779 moveto 
(e+)   show
 511.033008589  149.225243558 moveto 
(3)   show
 450.0 195.0 521.151247354 177.212188162 Ffermion 
 487.575623677  189.106094081 moveto 
(e-)   show
 529.151247354  175.212188162 moveto 
(4)   show
 400.0 195.0 450.0 195.0 Fhiggs 
 423.0  198.75 moveto 
(h)   show
 350 120 400.0 195.0 0 Fgluon 
 369.0  160.5 moveto 
(g)   show
 342.0  120 moveto 
(1)   show
 350 270 400.0 195.0 0 Fgluon 
 377.0  235.5 moveto 
(g)   show
 342.0  270 moveto 
(2)   show
 390.0  94.5 moveto 
( diagram 30 )   show
 470.0  94.5 moveto 
 (NP=2, QCD=0, QED=4, SMHLOOP=0)   show
showpage
%%Page: 6 6 
%%PageBoundingBox:-20 -20 600 800
%%PageFonts: Helvetica
/Helvetica findfont 6 scalefont setfont
 50         770  moveto
 () show
 525         770  moveto
 (page 6/7) show
 260         40  moveto
 (Diagrams made by MadGraph5_aMC@NLO) show
 115.0 670.0 0.9 1.0 Fblob 
 77.5 670.0 0.9 1.0 Fblob 
 190.0 686.666666667 152.5 703.333333333 Ffermion 
 172.75  697.0 moveto 
(e+)   show
 196.0  684.0 moveto 
(3)   show
 152.5 703.333333333 190.0 720 Ffermion 
 162.25  715.666666667 moveto 
(e-)   show
 196.0  722.666666667 moveto 
(4)   show
 115.0 670.0 152.5 703.333333333 0 Fphoton 
 129.25  688.666666667 moveto 
(z)   show
 154.774756442 643.483495706 115.0 670.0 Ffermion 
 136.387378221  658.741747853 moveto 
(e+)   show
 160.774756442  639.483495706 moveto 
(5)   show
 115.0 670.0 168.363435515 658.141458774 Ffermion 
 143.181717758  666.070729387 moveto 
(e-)   show
 174.363435515  656.808125441 moveto 
(6)   show
 77.5 670.0 115.0 670.0 Fhiggs 
 94.75  672.5 moveto 
(h)   show
 40 620 77.5 670.0 0 Fgluon 
 54.25  647.0 moveto 
(g)   show
 34.0  620 moveto 
(1)   show
 40 720 77.5 670.0 0 Fgluon 
 60.25  697.0 moveto 
(g)   show
 34.0  720 moveto 
(2)   show
 70.0  603.0 moveto 
( diagram 31 )   show
 130.0  603.0 moveto 
 (NP=2, QCD=0, QED=4, SMHLOOP=0)   show
 307.0 670.0 0.9 1.0 Fblob 
 269.5 670.0 0.9 1.0 Fblob 
 382.0 620 344.5 645.0 Ffermion 
 364.75  634.5 moveto 
(e+)   show
 388.0  616.0 moveto 
(3)   show
 344.5 645.0 382.0 653.333333333 Ffermion 
 354.25  653.166666667 moveto 
(e-)   show
 388.0  654.666666667 moveto 
(4)   show
 307.0 670.0 344.5 645.0 0 Fphoton 
 327.25  659.5 moveto 
(a)   show
 382.0 686.666666667 344.5 695.0 Ffermion 
 364.75  692.833333333 moveto 
(e+)   show
 388.0  685.333333333 moveto 
(5)   show
 344.5 695.0 382.0 720 Ffermion 
 354.25  711.5 moveto 
(e-)   show
 388.0  724.0 moveto 
(6)   show
 307.0 670.0 344.5 695.0 0 Fphoton 
 321.25  684.5 moveto 
(a)   show
 269.5 670.0 307.0 670.0 Fhiggs 
 286.75  672.5 moveto 
(h)   show
 232 620 269.5 670.0 0 Fgluon 
 246.25  647.0 moveto 
(g)   show
 226.0  620 moveto 
(1)   show
 232 720 269.5 670.0 0 Fgluon 
 252.25  697.0 moveto 
(g)   show
 226.0  720 moveto 
(2)   show
 262.0  603.0 moveto 
( diagram 32 )   show
 322.0  603.0 moveto 
 (NP=2, QCD=0, QED=4, SMHLOOP=0)   show
 499.0 670.0 0.9 1.0 Fblob 
 461.5 670.0 0.9 1.0 Fblob 
 574.0 620 536.5 645.0 Ffermion 
 556.75  634.5 moveto 
(e+)   show
 580.0  616.0 moveto 
(3)   show
 536.5 645.0 574.0 653.333333333 Ffermion 
 546.25  653.166666667 moveto 
(e-)   show
 580.0  654.666666667 moveto 
(4)   show
 499.0 670.0 536.5 645.0 0 Fphoton 
 519.25  659.5 moveto 
(a)   show
 574.0 686.666666667 536.5 695.0 Ffermion 
 556.75  692.833333333 moveto 
(e+)   show
 580.0  685.333333333 moveto 
(5)   show
 536.5 695.0 574.0 720 Ffermion 
 546.25  711.5 moveto 
(e-)   show
 580.0  724.0 moveto 
(6)   show
 499.0 670.0 536.5 695.0 0 Fphoton 
 513.25  684.5 moveto 
(a)   show
 461.5 670.0 499.0 670.0 Fhiggs 
 478.75  672.5 moveto 
(h)   show
 424 620 461.5 670.0 0 Fgluon 
 438.25  647.0 moveto 
(g)   show
 418.0  620 moveto 
(1)   show
 424 720 461.5 670.0 0 Fgluon 
 444.25  697.0 moveto 
(g)   show
 418.0  720 moveto 
(2)   show
 454.0  603.0 moveto 
( diagram 33 )   show
 514.0  603.0 moveto 
 (NP=2, QCD=0, QED=4, SMHLOOP=0)   show
 115.0 540.0 0.9 1.0 Fblob 
 77.5 540.0 0.9 1.0 Fblob 
 190.0 490 152.5 515.0 Ffermion 
 172.75  504.5 moveto 
(e+)   show
 196.0  486.0 moveto 
(3)   show
 152.5 515.0 190.0 523.333333333 Ffermion 
 162.25  523.166666667 moveto 
(e-)   show
 196.0  524.666666667 moveto 
(4)   show
 115.0 540.0 152.5 515.0 0 Fphoton 
 135.25  529.5 moveto 
(a)   show
 190.0 556.666666667 152.5 565.0 Ffermion 
 172.75  562.833333333 moveto 
(e+)   show
 196.0  555.333333333 moveto 
(5)   show
 152.5 565.0 190.0 590 Ffermion 
 162.25  581.5 moveto 
(e-)   show
 196.0  594.0 moveto 
(6)   show
 115.0 540.0 152.5 565.0 0 Fphoton 
 129.25  554.5 moveto 
(z)   show
 77.5 540.0 115.0 540.0 Fhiggs 
 94.75  542.5 moveto 
(h)   show
 40 490 77.5 540.0 0 Fgluon 
 54.25  517.0 moveto 
(g)   show
 34.0  490 moveto 
(1)   show
 40 590 77.5 540.0 0 Fgluon 
 60.25  567.0 moveto 
(g)   show
 34.0  590 moveto 
(2)   show
 70.0  473.0 moveto 
( diagram 34 )   show
 130.0  473.0 moveto 
 (NP=2, QCD=0, QED=4, SMHLOOP=0)   show
 307.0 540.0 0.9 1.0 Fblob 
 269.5 540.0 0.9 1.0 Fblob 
 382.0 490 344.5 515.0 Ffermion 
 364.75  504.5 moveto 
(e+)   show
 388.0  486.0 moveto 
(3)   show
 344.5 515.0 382.0 523.333333333 Ffermion 
 354.25  523.166666667 moveto 
(e-)   show
 388.0  524.666666667 moveto 
(4)   show
 307.0 540.0 344.5 515.0 0 Fphoton 
 327.25  529.5 moveto 
(a)   show
 382.0 556.666666667 344.5 565.0 Ffermion 
 364.75  562.833333333 moveto 
(e+)   show
 388.0  555.333333333 moveto 
(5)   show
 344.5 565.0 382.0 590 Ffermion 
 354.25  581.5 moveto 
(e-)   show
 388.0  594.0 moveto 
(6)   show
 307.0 540.0 344.5 565.0 0 Fphoton 
 321.25  554.5 moveto 
(z)   show
 269.5 540.0 307.0 540.0 Fhiggs 
 286.75  542.5 moveto 
(h)   show
 232 490 269.5 540.0 0 Fgluon 
 246.25  517.0 moveto 
(g)   show
 226.0  490 moveto 
(1)   show
 232 590 269.5 540.0 0 Fgluon 
 252.25  567.0 moveto 
(g)   show
 226.0  590 moveto 
(2)   show
 262.0  473.0 moveto 
( diagram 35 )   show
 322.0  473.0 moveto 
 (NP=2, QCD=0, QED=4, SMHLOOP=0)   show
 499.0 540.0 0.9 1.0 Fblob 
 461.5 540.0 0.9 1.0 Fblob 
 574.0 490 536.5 515.0 Ffermion 
 556.75  504.5 moveto 
(e+)   show
 580.0  486.0 moveto 
(5)   show
 536.5 515.0 574.0 523.333333333 Ffermion 
 546.25  523.166666667 moveto 
(e-)   show
 580.0  524.666666667 moveto 
(6)   show
 499.0 540.0 536.5 515.0 0 Fphoton 
 519.25  529.5 moveto 
(a)   show
 574.0 556.666666667 536.5 565.0 Ffermion 
 556.75  562.833333333 moveto 
(e+)   show
 580.0  555.333333333 moveto 
(3)   show
 536.5 565.0 574.0 590 Ffermion 
 546.25  581.5 moveto 
(e-)   show
 580.0  594.0 moveto 
(4)   show
 499.0 540.0 536.5 565.0 0 Fphoton 
 513.25  554.5 moveto 
(z)   show
 461.5 540.0 499.0 540.0 Fhiggs 
 478.75  542.5 moveto 
(h)   show
 424 490 461.5 540.0 0 Fgluon 
 438.25  517.0 moveto 
(g)   show
 418.0  490 moveto 
(1)   show
 424 590 461.5 540.0 0 Fgluon 
 444.25  567.0 moveto 
(g)   show
 418.0  590 moveto 
(2)   show
 454.0  473.0 moveto 
( diagram 36 )   show
 514.0  473.0 moveto 
 (NP=2, QCD=0, QED=4, SMHLOOP=0)   show
 115.0 410.0 0.9 1.0 Fblob 
 77.5 410.0 0.9 1.0 Fblob 
 190.0 360 152.5 385.0 Ffermion 
 172.75  374.5 moveto 
(e+)   show
 196.0  356.0 moveto 
(5)   show
 152.5 385.0 190.0 393.333333333 Ffermion 
 162.25  393.166666667 moveto 
(e-)   show
 196.0  394.666666667 moveto 
(6)   show
 115.0 410.0 152.5 385.0 0 Fphoton 
 135.25  399.5 moveto 
(a)   show
 190.0 426.666666667 152.5 435.0 Ffermion 
 172.75  432.833333333 moveto 
(e+)   show
 196.0  425.333333333 moveto 
(3)   show
 152.5 435.0 190.0 460 Ffermion 
 162.25  451.5 moveto 
(e-)   show
 196.0  464.0 moveto 
(4)   show
 115.0 410.0 152.5 435.0 0 Fphoton 
 129.25  424.5 moveto 
(z)   show
 77.5 410.0 115.0 410.0 Fhiggs 
 94.75  412.5 moveto 
(h)   show
 40 360 77.5 410.0 0 Fgluon 
 54.25  387.0 moveto 
(g)   show
 34.0  360 moveto 
(1)   show
 40 460 77.5 410.0 0 Fgluon 
 60.25  437.0 moveto 
(g)   show
 34.0  460 moveto 
(2)   show
 70.0  343.0 moveto 
( diagram 37 )   show
 130.0  343.0 moveto 
 (NP=2, QCD=0, QED=4, SMHLOOP=0)   show
 269.5 410.0 0.9 1.0 Fblob 
 382.0 360 344.5 385.0 Ffermion 
 364.75  374.5 moveto 
(e+)   show
 388.0  356.0 moveto 
(3)   show
 344.5 385.0 382.0 393.333333333 Ffermion 
 354.25  393.166666667 moveto 
(e-)   show
 388.0  394.666666667 moveto 
(4)   show
 307.0 410.0 344.5 385.0 0 Fphoton 
 327.25  399.5 moveto 
(z)   show
 382.0 426.666666667 344.5 435.0 Ffermion 
 364.75  432.833333333 moveto 
(e+)   show
 388.0  425.333333333 moveto 
(5)   show
 344.5 435.0 382.0 460 Ffermion 
 354.25  451.5 moveto 
(e-)   show
 388.0  464.0 moveto 
(6)   show
 307.0 410.0 344.5 435.0 0 Fphoton 
 321.25  424.5 moveto 
(z)   show
 269.5 410.0 307.0 410.0 Fhiggs 
 286.75  412.5 moveto 
(h)   show
 232 360 269.5 410.0 0 Fgluon 
 246.25  387.0 moveto 
(g)   show
 226.0  360 moveto 
(1)   show
 232 460 269.5 410.0 0 Fgluon 
 252.25  437.0 moveto 
(g)   show
 226.0  460 moveto 
(2)   show
 262.0  343.0 moveto 
( diagram 38 )   show
 322.0  343.0 moveto 
 (NP=1, QCD=0, QED=4, SMHLOOP=0)   show
 499.0 410.0 0.9 1.0 Fblob 
 461.5 410.0 0.9 1.0 Fblob 
 574.0 360 536.5 385.0 Ffermion 
 556.75  374.5 moveto 
(e+)   show
 580.0  356.0 moveto 
(3)   show
 536.5 385.0 574.0 393.333333333 Ffermion 
 546.25  393.166666667 moveto 
(e-)   show
 580.0  394.666666667 moveto 
(4)   show
 499.0 410.0 536.5 385.0 0 Fphoton 
 519.25  399.5 moveto 
(z)   show
 574.0 426.666666667 536.5 435.0 Ffermion 
 556.75  432.833333333 moveto 
(e+)   show
 580.0  425.333333333 moveto 
(5)   show
 536.5 435.0 574.0 460 Ffermion 
 546.25  451.5 moveto 
(e-)   show
 580.0  464.0 moveto 
(6)   show
 499.0 410.0 536.5 435.0 0 Fphoton 
 513.25  424.5 moveto 
(z)   show
 461.5 410.0 499.0 410.0 Fhiggs 
 478.75  412.5 moveto 
(h)   show
 424 360 461.5 410.0 0 Fgluon 
 438.25  387.0 moveto 
(g)   show
 418.0  360 moveto 
(1)   show
 424 460 461.5 410.0 0 Fgluon 
 444.25  437.0 moveto 
(g)   show
 418.0  460 moveto 
(2)   show
 454.0  343.0 moveto 
( diagram 39 )   show
 514.0  343.0 moveto 
 (NP=2, QCD=0, QED=4, SMHLOOP=0)   show
 115.0 280.0 0.9 1.0 Fblob 
 77.5 280.0 0.9 1.0 Fblob 
 190.0 230 152.5 255.0 Ffermion 
 172.75  244.5 moveto 
(e+)   show
 196.0  226.0 moveto 
(3)   show
 152.5 255.0 190.0 263.333333333 Ffermion 
 162.25  263.166666667 moveto 
(e-)   show
 196.0  264.666666667 moveto 
(4)   show
 115.0 280.0 152.5 255.0 0 Fphoton 
 135.25  269.5 moveto 
(z)   show
 190.0 296.666666667 152.5 305.0 Ffermion 
 172.75  302.833333333 moveto 
(e+)   show
 196.0  295.333333333 moveto 
(5)   show
 152.5 305.0 190.0 330 Ffermion 
 162.25  321.5 moveto 
(e-)   show
 196.0  334.0 moveto 
(6)   show
 115.0 280.0 152.5 305.0 0 Fphoton 
 129.25  294.5 moveto 
(z)   show
 77.5 280.0 115.0 280.0 Fhiggs 
 94.75  282.5 moveto 
(h)   show
 40 230 77.5 280.0 0 Fgluon 
 54.25  257.0 moveto 
(g)   show
 34.0  230 moveto 
(1)   show
 40 330 77.5 280.0 0 Fgluon 
 60.25  307.0 moveto 
(g)   show
 34.0  330 moveto 
(2)   show
 70.0  213.0 moveto 
( diagram 40 )   show
 130.0  213.0 moveto 
 (NP=2, QCD=0, QED=4, SMHLOOP=0)   show
 344.5 305.0 0.9 1.0 Fblob 
 269.5 280.0 0.9 1.0 Fblob 
 382.0 230 344.5 255.0 Ffermion 
 364.75  244.5 moveto 
(e+)   show
 388.0  226.0 moveto 
(3)   show
 344.5 255.0 382.0 263.333333333 Ffermion 
 354.25  263.166666667 moveto 
(e-)   show
 388.0  264.666666667 moveto 
(4)   show
 307.0 280.0 344.5 255.0 0 Fphoton 
 327.25  269.5 moveto 
(z)   show
 382.0 296.666666667 344.5 305.0 Ffermion 
 364.75  302.833333333 moveto 
(e+)   show
 388.0  295.333333333 moveto 
(5)   show
 344.5 305.0 382.0 330 Ffermion 
 354.25  321.5 moveto 
(e-)   show
 388.0  334.0 moveto 
(6)   show
 307.0 280.0 344.5 305.0 0 Fphoton 
 321.25  294.5 moveto 
(z)   show
 269.5 280.0 307.0 280.0 Fhiggs 
 286.75  282.5 moveto 
(h)   show
 232 230 269.5 280.0 0 Fgluon 
 246.25  257.0 moveto 
(g)   show
 226.0  230 moveto 
(1)   show
 232 330 269.5 280.0 0 Fgluon 
 252.25  307.0 moveto 
(g)   show
 226.0  330 moveto 
(2)   show
 262.0  213.0 moveto 
( diagram 41 )   show
 322.0  213.0 moveto 
 (NP=2, QCD=0, QED=4, SMHLOOP=0)   show
 536.5 305.0 0.9 1.0 Fblob 
 461.5 280.0 0.9 1.0 Fblob 
 574.0 230 536.5 255.0 Ffermion 
 556.75  244.5 moveto 
(e+)   show
 580.0  226.0 moveto 
(3)   show
 536.5 255.0 574.0 263.333333333 Ffermion 
 546.25  263.166666667 moveto 
(e-)   show
 580.0  264.666666667 moveto 
(4)   show
 499.0 280.0 536.5 255.0 0 Fphoton 
 519.25  269.5 moveto 
(z)   show
 574.0 296.666666667 536.5 305.0 Ffermion 
 556.75  302.833333333 moveto 
(e+)   show
 580.0  295.333333333 moveto 
(5)   show
 536.5 305.0 574.0 330 Ffermion 
 546.25  321.5 moveto 
(e-)   show
 580.0  334.0 moveto 
(6)   show
 499.0 280.0 536.5 305.0 0 Fphoton 
 513.25  294.5 moveto 
(z)   show
 461.5 280.0 499.0 280.0 Fhiggs 
 478.75  282.5 moveto 
(h)   show
 424 230 461.5 280.0 0 Fgluon 
 438.25  257.0 moveto 
(g)   show
 418.0  230 moveto 
(1)   show
 424 330 461.5 280.0 0 Fgluon 
 444.25  307.0 moveto 
(g)   show
 418.0  330 moveto 
(2)   show
 454.0  213.0 moveto 
( diagram 42 )   show
 514.0  213.0 moveto 
 (NP=2, QCD=0, QED=4, SMHLOOP=0)   show
 152.5 125.0 0.9 1.0 Fblob 
 77.5 150.0 0.9 1.0 Fblob 
 190.0 100 152.5 125.0 Ffermion 
 172.75  114.5 moveto 
(e+)   show
 196.0  96.0 moveto 
(3)   show
 152.5 125.0 190.0 133.333333333 Ffermion 
 162.25  133.166666667 moveto 
(e-)   show
 196.0  134.666666667 moveto 
(4)   show
 115.0 150.0 152.5 125.0 0 Fphoton 
 135.25  139.5 moveto 
(z)   show
 190.0 166.666666667 152.5 175.0 Ffermion 
 172.75  172.833333333 moveto 
(e+)   show
 196.0  165.333333333 moveto 
(5)   show
 152.5 175.0 190.0 200 Ffermion 
 162.25  191.5 moveto 
(e-)   show
 196.0  204.0 moveto 
(6)   show
 115.0 150.0 152.5 175.0 0 Fphoton 
 129.25  164.5 moveto 
(z)   show
 77.5 150.0 115.0 150.0 Fhiggs 
 94.75  152.5 moveto 
(h)   show
 40 100 77.5 150.0 0 Fgluon 
 54.25  127.0 moveto 
(g)   show
 34.0  100 moveto 
(1)   show
 40 200 77.5 150.0 0 Fgluon 
 60.25  177.0 moveto 
(g)   show
 34.0  200 moveto 
(2)   show
 70.0  83.0 moveto 
( diagram 43 )   show
 130.0  83.0 moveto 
 (NP=2, QCD=0, QED=4, SMHLOOP=0)   show
 344.5 125.0 0.9 1.0 Fblob 
 269.5 150.0 0.9 1.0 Fblob 
 382.0 100 344.5 125.0 Ffermion 
 364.75  114.5 moveto 
(e+)   show
 388.0  96.0 moveto 
(3)   show
 344.5 125.0 382.0 133.333333333 Ffermion 
 354.25  133.166666667 moveto 
(e-)   show
 388.0  134.666666667 moveto 
(4)   show
 307.0 150.0 344.5 125.0 0 Fphoton 
 327.25  139.5 moveto 
(z)   show
 382.0 166.666666667 344.5 175.0 Ffermion 
 364.75  172.833333333 moveto 
(e+)   show
 388.0  165.333333333 moveto 
(5)   show
 344.5 175.0 382.0 200 Ffermion 
 354.25  191.5 moveto 
(e-)   show
 388.0  204.0 moveto 
(6)   show
 307.0 150.0 344.5 175.0 0 Fphoton 
 321.25  164.5 moveto 
(z)   show
 269.5 150.0 307.0 150.0 Fhiggs 
 286.75  152.5 moveto 
(h)   show
 232 100 269.5 150.0 0 Fgluon 
 246.25  127.0 moveto 
(g)   show
 226.0  100 moveto 
(1)   show
 232 200 269.5 150.0 0 Fgluon 
 252.25  177.0 moveto 
(g)   show
 226.0  200 moveto 
(2)   show
 262.0  83.0 moveto 
( diagram 44 )   show
 322.0  83.0 moveto 
 (NP=2, QCD=0, QED=4, SMHLOOP=0)   show
 499.0 150.0 0.9 1.0 Fblob 
 461.5 150.0 0.9 1.0 Fblob 
 574.0 166.666666667 536.5 183.333333333 Ffermion 
 556.75  177.0 moveto 
(e+)   show
 580.0  164.0 moveto 
(3)   show
 536.5 183.333333333 574.0 200 Ffermion 
 546.25  195.666666667 moveto 
(e-)   show
 580.0  202.666666667 moveto 
(6)   show
 499.0 150.0 536.5 183.333333333 0 Fphoton 
 513.25  168.666666667 moveto 
(z)   show
 538.774756442 123.483495706 499.0 150.0 Ffermion 
 520.387378221  138.741747853 moveto 
(e+)   show
 544.774756442  119.483495706 moveto 
(5)   show
 499.0 150.0 552.363435515 138.141458774 Ffermion 
 527.181717758  146.070729387 moveto 
(e-)   show
 558.363435515  136.808125441 moveto 
(4)   show
 461.5 150.0 499.0 150.0 Fhiggs 
 478.75  152.5 moveto 
(h)   show
 424 100 461.5 150.0 0 Fgluon 
 438.25  127.0 moveto 
(g)   show
 418.0  100 moveto 
(1)   show
 424 200 461.5 150.0 0 Fgluon 
 444.25  177.0 moveto 
(g)   show
 418.0  200 moveto 
(2)   show
 454.0  83.0 moveto 
( diagram 45 )   show
 514.0  83.0 moveto 
 (NP=2, QCD=0, QED=4, SMHLOOP=0)   show
showpage
%%Page: 7 7 
%%PageBoundingBox:-20 -20 600 800
%%PageFonts: Helvetica
/Helvetica findfont 6 scalefont setfont
 50         770  moveto
 () show
 525         770  moveto
 (page 7/7) show
 260         40  moveto
 (Diagrams made by MadGraph5_aMC@NLO) show
 115.0 670.0 0.9 1.0 Fblob 
 77.5 670.0 0.9 1.0 Fblob 
 190.0 620 152.5 645.0 Ffermion 
 172.75  634.5 moveto 
(e+)   show
 196.0  616.0 moveto 
(3)   show
 152.5 645.0 190.0 653.333333333 Ffermion 
 162.25  653.166666667 moveto 
(e-)   show
 196.0  654.666666667 moveto 
(6)   show
 115.0 670.0 152.5 645.0 0 Fphoton 
 135.25  659.5 moveto 
(a)   show
 190.0 686.666666667 152.5 695.0 Ffermion 
 172.75  692.833333333 moveto 
(e+)   show
 196.0  685.333333333 moveto 
(5)   show
 152.5 695.0 190.0 720 Ffermion 
 162.25  711.5 moveto 
(e-)   show
 196.0  724.0 moveto 
(4)   show
 115.0 670.0 152.5 695.0 0 Fphoton 
 129.25  684.5 moveto 
(a)   show
 77.5 670.0 115.0 670.0 Fhiggs 
 94.75  672.5 moveto 
(h)   show
 40 620 77.5 670.0 0 Fgluon 
 54.25  647.0 moveto 
(g)   show
 34.0  620 moveto 
(1)   show
 40 720 77.5 670.0 0 Fgluon 
 60.25  697.0 moveto 
(g)   show
 34.0  720 moveto 
(2)   show
 70.0  603.0 moveto 
( diagram 46 )   show
 130.0  603.0 moveto 
 (NP=2, QCD=0, QED=4, SMHLOOP=0)   show
 307.0 670.0 0.9 1.0 Fblob 
 269.5 670.0 0.9 1.0 Fblob 
 382.0 620 344.5 645.0 Ffermion 
 364.75  634.5 moveto 
(e+)   show
 388.0  616.0 moveto 
(3)   show
 344.5 645.0 382.0 653.333333333 Ffermion 
 354.25  653.166666667 moveto 
(e-)   show
 388.0  654.666666667 moveto 
(6)   show
 307.0 670.0 344.5 645.0 0 Fphoton 
 327.25  659.5 moveto 
(a)   show
 382.0 686.666666667 344.5 695.0 Ffermion 
 364.75  692.833333333 moveto 
(e+)   show
 388.0  685.333333333 moveto 
(5)   show
 344.5 695.0 382.0 720 Ffermion 
 354.25  711.5 moveto 
(e-)   show
 388.0  724.0 moveto 
(4)   show
 307.0 670.0 344.5 695.0 0 Fphoton 
 321.25  684.5 moveto 
(a)   show
 269.5 670.0 307.0 670.0 Fhiggs 
 286.75  672.5 moveto 
(h)   show
 232 620 269.5 670.0 0 Fgluon 
 246.25  647.0 moveto 
(g)   show
 226.0  620 moveto 
(1)   show
 232 720 269.5 670.0 0 Fgluon 
 252.25  697.0 moveto 
(g)   show
 226.0  720 moveto 
(2)   show
 262.0  603.0 moveto 
( diagram 47 )   show
 322.0  603.0 moveto 
 (NP=2, QCD=0, QED=4, SMHLOOP=0)   show
 499.0 670.0 0.9 1.0 Fblob 
 461.5 670.0 0.9 1.0 Fblob 
 574.0 620 536.5 645.0 Ffermion 
 556.75  634.5 moveto 
(e+)   show
 580.0  616.0 moveto 
(3)   show
 536.5 645.0 574.0 653.333333333 Ffermion 
 546.25  653.166666667 moveto 
(e-)   show
 580.0  654.666666667 moveto 
(6)   show
 499.0 670.0 536.5 645.0 0 Fphoton 
 519.25  659.5 moveto 
(a)   show
 574.0 686.666666667 536.5 695.0 Ffermion 
 556.75  692.833333333 moveto 
(e+)   show
 580.0  685.333333333 moveto 
(5)   show
 536.5 695.0 574.0 720 Ffermion 
 546.25  711.5 moveto 
(e-)   show
 580.0  724.0 moveto 
(4)   show
 499.0 670.0 536.5 695.0 0 Fphoton 
 513.25  684.5 moveto 
(z)   show
 461.5 670.0 499.0 670.0 Fhiggs 
 478.75  672.5 moveto 
(h)   show
 424 620 461.5 670.0 0 Fgluon 
 438.25  647.0 moveto 
(g)   show
 418.0  620 moveto 
(1)   show
 424 720 461.5 670.0 0 Fgluon 
 444.25  697.0 moveto 
(g)   show
 418.0  720 moveto 
(2)   show
 454.0  603.0 moveto 
( diagram 48 )   show
 514.0  603.0 moveto 
 (NP=2, QCD=0, QED=4, SMHLOOP=0)   show
 115.0 540.0 0.9 1.0 Fblob 
 77.5 540.0 0.9 1.0 Fblob 
 190.0 490 152.5 515.0 Ffermion 
 172.75  504.5 moveto 
(e+)   show
 196.0  486.0 moveto 
(3)   show
 152.5 515.0 190.0 523.333333333 Ffermion 
 162.25  523.166666667 moveto 
(e-)   show
 196.0  524.666666667 moveto 
(6)   show
 115.0 540.0 152.5 515.0 0 Fphoton 
 135.25  529.5 moveto 
(a)   show
 190.0 556.666666667 152.5 565.0 Ffermion 
 172.75  562.833333333 moveto 
(e+)   show
 196.0  555.333333333 moveto 
(5)   show
 152.5 565.0 190.0 590 Ffermion 
 162.25  581.5 moveto 
(e-)   show
 196.0  594.0 moveto 
(4)   show
 115.0 540.0 152.5 565.0 0 Fphoton 
 129.25  554.5 moveto 
(z)   show
 77.5 540.0 115.0 540.0 Fhiggs 
 94.75  542.5 moveto 
(h)   show
 40 490 77.5 540.0 0 Fgluon 
 54.25  517.0 moveto 
(g)   show
 34.0  490 moveto 
(1)   show
 40 590 77.5 540.0 0 Fgluon 
 60.25  567.0 moveto 
(g)   show
 34.0  590 moveto 
(2)   show
 70.0  473.0 moveto 
( diagram 49 )   show
 130.0  473.0 moveto 
 (NP=2, QCD=0, QED=4, SMHLOOP=0)   show
 307.0 540.0 0.9 1.0 Fblob 
 269.5 540.0 0.9 1.0 Fblob 
 382.0 490 344.5 515.0 Ffermion 
 364.75  504.5 moveto 
(e+)   show
 388.0  486.0 moveto 
(5)   show
 344.5 515.0 382.0 523.333333333 Ffermion 
 354.25  523.166666667 moveto 
(e-)   show
 388.0  524.666666667 moveto 
(4)   show
 307.0 540.0 344.5 515.0 0 Fphoton 
 327.25  529.5 moveto 
(a)   show
 382.0 556.666666667 344.5 565.0 Ffermion 
 364.75  562.833333333 moveto 
(e+)   show
 388.0  555.333333333 moveto 
(3)   show
 344.5 565.0 382.0 590 Ffermion 
 354.25  581.5 moveto 
(e-)   show
 388.0  594.0 moveto 
(6)   show
 307.0 540.0 344.5 565.0 0 Fphoton 
 321.25  554.5 moveto 
(z)   show
 269.5 540.0 307.0 540.0 Fhiggs 
 286.75  542.5 moveto 
(h)   show
 232 490 269.5 540.0 0 Fgluon 
 246.25  517.0 moveto 
(g)   show
 226.0  490 moveto 
(1)   show
 232 590 269.5 540.0 0 Fgluon 
 252.25  567.0 moveto 
(g)   show
 226.0  590 moveto 
(2)   show
 262.0  473.0 moveto 
( diagram 50 )   show
 322.0  473.0 moveto 
 (NP=2, QCD=0, QED=4, SMHLOOP=0)   show
 499.0 540.0 0.9 1.0 Fblob 
 461.5 540.0 0.9 1.0 Fblob 
 574.0 490 536.5 515.0 Ffermion 
 556.75  504.5 moveto 
(e+)   show
 580.0  486.0 moveto 
(5)   show
 536.5 515.0 574.0 523.333333333 Ffermion 
 546.25  523.166666667 moveto 
(e-)   show
 580.0  524.666666667 moveto 
(4)   show
 499.0 540.0 536.5 515.0 0 Fphoton 
 519.25  529.5 moveto 
(a)   show
 574.0 556.666666667 536.5 565.0 Ffermion 
 556.75  562.833333333 moveto 
(e+)   show
 580.0  555.333333333 moveto 
(3)   show
 536.5 565.0 574.0 590 Ffermion 
 546.25  581.5 moveto 
(e-)   show
 580.0  594.0 moveto 
(6)   show
 499.0 540.0 536.5 565.0 0 Fphoton 
 513.25  554.5 moveto 
(z)   show
 461.5 540.0 499.0 540.0 Fhiggs 
 478.75  542.5 moveto 
(h)   show
 424 490 461.5 540.0 0 Fgluon 
 438.25  517.0 moveto 
(g)   show
 418.0  490 moveto 
(1)   show
 424 590 461.5 540.0 0 Fgluon 
 444.25  567.0 moveto 
(g)   show
 418.0  590 moveto 
(2)   show
 454.0  473.0 moveto 
( diagram 51 )   show
 514.0  473.0 moveto 
 (NP=2, QCD=0, QED=4, SMHLOOP=0)   show
 77.5 410.0 0.9 1.0 Fblob 
 190.0 360 152.5 385.0 Ffermion 
 172.75  374.5 moveto 
(e+)   show
 196.0  356.0 moveto 
(3)   show
 152.5 385.0 190.0 393.333333333 Ffermion 
 162.25  393.166666667 moveto 
(e-)   show
 196.0  394.666666667 moveto 
(6)   show
 115.0 410.0 152.5 385.0 0 Fphoton 
 135.25  399.5 moveto 
(z)   show
 190.0 426.666666667 152.5 435.0 Ffermion 
 172.75  432.833333333 moveto 
(e+)   show
 196.0  425.333333333 moveto 
(5)   show
 152.5 435.0 190.0 460 Ffermion 
 162.25  451.5 moveto 
(e-)   show
 196.0  464.0 moveto 
(4)   show
 115.0 410.0 152.5 435.0 0 Fphoton 
 129.25  424.5 moveto 
(z)   show
 77.5 410.0 115.0 410.0 Fhiggs 
 94.75  412.5 moveto 
(h)   show
 40 360 77.5 410.0 0 Fgluon 
 54.25  387.0 moveto 
(g)   show
 34.0  360 moveto 
(1)   show
 40 460 77.5 410.0 0 Fgluon 
 60.25  437.0 moveto 
(g)   show
 34.0  460 moveto 
(2)   show
 70.0  343.0 moveto 
( diagram 52 )   show
 130.0  343.0 moveto 
 (NP=1, QCD=0, QED=4, SMHLOOP=0)   show
 307.0 410.0 0.9 1.0 Fblob 
 269.5 410.0 0.9 1.0 Fblob 
 382.0 360 344.5 385.0 Ffermion 
 364.75  374.5 moveto 
(e+)   show
 388.0  356.0 moveto 
(3)   show
 344.5 385.0 382.0 393.333333333 Ffermion 
 354.25  393.166666667 moveto 
(e-)   show
 388.0  394.666666667 moveto 
(6)   show
 307.0 410.0 344.5 385.0 0 Fphoton 
 327.25  399.5 moveto 
(z)   show
 382.0 426.666666667 344.5 435.0 Ffermion 
 364.75  432.833333333 moveto 
(e+)   show
 388.0  425.333333333 moveto 
(5)   show
 344.5 435.0 382.0 460 Ffermion 
 354.25  451.5 moveto 
(e-)   show
 388.0  464.0 moveto 
(4)   show
 307.0 410.0 344.5 435.0 0 Fphoton 
 321.25  424.5 moveto 
(z)   show
 269.5 410.0 307.0 410.0 Fhiggs 
 286.75  412.5 moveto 
(h)   show
 232 360 269.5 410.0 0 Fgluon 
 246.25  387.0 moveto 
(g)   show
 226.0  360 moveto 
(1)   show
 232 460 269.5 410.0 0 Fgluon 
 252.25  437.0 moveto 
(g)   show
 226.0  460 moveto 
(2)   show
 262.0  343.0 moveto 
( diagram 53 )   show
 322.0  343.0 moveto 
 (NP=2, QCD=0, QED=4, SMHLOOP=0)   show
 499.0 410.0 0.9 1.0 Fblob 
 461.5 410.0 0.9 1.0 Fblob 
 574.0 360 536.5 385.0 Ffermion 
 556.75  374.5 moveto 
(e+)   show
 580.0  356.0 moveto 
(3)   show
 536.5 385.0 574.0 393.333333333 Ffermion 
 546.25  393.166666667 moveto 
(e-)   show
 580.0  394.666666667 moveto 
(6)   show
 499.0 410.0 536.5 385.0 0 Fphoton 
 519.25  399.5 moveto 
(z)   show
 574.0 426.666666667 536.5 435.0 Ffermion 
 556.75  432.833333333 moveto 
(e+)   show
 580.0  425.333333333 moveto 
(5)   show
 536.5 435.0 574.0 460 Ffermion 
 546.25  451.5 moveto 
(e-)   show
 580.0  464.0 moveto 
(4)   show
 499.0 410.0 536.5 435.0 0 Fphoton 
 513.25  424.5 moveto 
(z)   show
 461.5 410.0 499.0 410.0 Fhiggs 
 478.75  412.5 moveto 
(h)   show
 424 360 461.5 410.0 0 Fgluon 
 438.25  387.0 moveto 
(g)   show
 418.0  360 moveto 
(1)   show
 424 460 461.5 410.0 0 Fgluon 
 444.25  437.0 moveto 
(g)   show
 418.0  460 moveto 
(2)   show
 454.0  343.0 moveto 
( diagram 54 )   show
 514.0  343.0 moveto 
 (NP=2, QCD=0, QED=4, SMHLOOP=0)   show
 152.5 305.0 0.9 1.0 Fblob 
 77.5 280.0 0.9 1.0 Fblob 
 190.0 230 152.5 255.0 Ffermion 
 172.75  244.5 moveto 
(e+)   show
 196.0  226.0 moveto 
(3)   show
 152.5 255.0 190.0 263.333333333 Ffermion 
 162.25  263.166666667 moveto 
(e-)   show
 196.0  264.666666667 moveto 
(6)   show
 115.0 280.0 152.5 255.0 0 Fphoton 
 135.25  269.5 moveto 
(z)   show
 190.0 296.666666667 152.5 305.0 Ffermion 
 172.75  302.833333333 moveto 
(e+)   show
 196.0  295.333333333 moveto 
(5)   show
 152.5 305.0 190.0 330 Ffermion 
 162.25  321.5 moveto 
(e-)   show
 196.0  334.0 moveto 
(4)   show
 115.0 280.0 152.5 305.0 0 Fphoton 
 129.25  294.5 moveto 
(z)   show
 77.5 280.0 115.0 280.0 Fhiggs 
 94.75  282.5 moveto 
(h)   show
 40 230 77.5 280.0 0 Fgluon 
 54.25  257.0 moveto 
(g)   show
 34.0  230 moveto 
(1)   show
 40 330 77.5 280.0 0 Fgluon 
 60.25  307.0 moveto 
(g)   show
 34.0  330 moveto 
(2)   show
 70.0  213.0 moveto 
( diagram 55 )   show
 130.0  213.0 moveto 
 (NP=2, QCD=0, QED=4, SMHLOOP=0)   show
 344.5 305.0 0.9 1.0 Fblob 
 269.5 280.0 0.9 1.0 Fblob 
 382.0 230 344.5 255.0 Ffermion 
 364.75  244.5 moveto 
(e+)   show
 388.0  226.0 moveto 
(3)   show
 344.5 255.0 382.0 263.333333333 Ffermion 
 354.25  263.166666667 moveto 
(e-)   show
 388.0  264.666666667 moveto 
(6)   show
 307.0 280.0 344.5 255.0 0 Fphoton 
 327.25  269.5 moveto 
(z)   show
 382.0 296.666666667 344.5 305.0 Ffermion 
 364.75  302.833333333 moveto 
(e+)   show
 388.0  295.333333333 moveto 
(5)   show
 344.5 305.0 382.0 330 Ffermion 
 354.25  321.5 moveto 
(e-)   show
 388.0  334.0 moveto 
(4)   show
 307.0 280.0 344.5 305.0 0 Fphoton 
 321.25  294.5 moveto 
(z)   show
 269.5 280.0 307.0 280.0 Fhiggs 
 286.75  282.5 moveto 
(h)   show
 232 230 269.5 280.0 0 Fgluon 
 246.25  257.0 moveto 
(g)   show
 226.0  230 moveto 
(1)   show
 232 330 269.5 280.0 0 Fgluon 
 252.25  307.0 moveto 
(g)   show
 226.0  330 moveto 
(2)   show
 262.0  213.0 moveto 
( diagram 56 )   show
 322.0  213.0 moveto 
 (NP=2, QCD=0, QED=4, SMHLOOP=0)   show
 536.5 255.0 0.9 1.0 Fblob 
 461.5 280.0 0.9 1.0 Fblob 
 574.0 230 536.5 255.0 Ffermion 
 556.75  244.5 moveto 
(e+)   show
 580.0  226.0 moveto 
(3)   show
 536.5 255.0 574.0 263.333333333 Ffermion 
 546.25  263.166666667 moveto 
(e-)   show
 580.0  264.666666667 moveto 
(6)   show
 499.0 280.0 536.5 255.0 0 Fphoton 
 519.25  269.5 moveto 
(z)   show
 574.0 296.666666667 536.5 305.0 Ffermion 
 556.75  302.833333333 moveto 
(e+)   show
 580.0  295.333333333 moveto 
(5)   show
 536.5 305.0 574.0 330 Ffermion 
 546.25  321.5 moveto 
(e-)   show
 580.0  334.0 moveto 
(4)   show
 499.0 280.0 536.5 305.0 0 Fphoton 
 513.25  294.5 moveto 
(z)   show
 461.5 280.0 499.0 280.0 Fhiggs 
 478.75  282.5 moveto 
(h)   show
 424 230 461.5 280.0 0 Fgluon 
 438.25  257.0 moveto 
(g)   show
 418.0  230 moveto 
(1)   show
 424 330 461.5 280.0 0 Fgluon 
 444.25  307.0 moveto 
(g)   show
 418.0  330 moveto 
(2)   show
 454.0  213.0 moveto 
( diagram 57 )   show
 514.0  213.0 moveto 
 (NP=2, QCD=0, QED=4, SMHLOOP=0)   show
 152.5 125.0 0.9 1.0 Fblob 
 77.5 150.0 0.9 1.0 Fblob 
 190.0 100 152.5 125.0 Ffermion 
 172.75  114.5 moveto 
(e+)   show
 196.0  96.0 moveto 
(3)   show
 152.5 125.0 190.0 133.333333333 Ffermion 
 162.25  133.166666667 moveto 
(e-)   show
 196.0  134.666666667 moveto 
(6)   show
 115.0 150.0 152.5 125.0 0 Fphoton 
 135.25  139.5 moveto 
(z)   show
 190.0 166.666666667 152.5 175.0 Ffermion 
 172.75  172.833333333 moveto 
(e+)   show
 196.0  165.333333333 moveto 
(5)   show
 152.5 175.0 190.0 200 Ffermion 
 162.25  191.5 moveto 
(e-)   show
 196.0  204.0 moveto 
(4)   show
 115.0 150.0 152.5 175.0 0 Fphoton 
 129.25  164.5 moveto 
(z)   show
 77.5 150.0 115.0 150.0 Fhiggs 
 94.75  152.5 moveto 
(h)   show
 40 100 77.5 150.0 0 Fgluon 
 54.25  127.0 moveto 
(g)   show
 34.0  100 moveto 
(1)   show
 40 200 77.5 150.0 0 Fgluon 
 60.25  177.0 moveto 
(g)   show
 34.0  200 moveto 
(2)   show
 70.0  83.0 moveto 
( diagram 58 )   show
 130.0  83.0 moveto 
 (NP=2, QCD=0, QED=4, SMHLOOP=0)   show
 307.0 150.0 0.9 1.0 Fblob 
 269.5 150.0 0.9 1.0 Fblob 
 382.0 166.666666667 344.5 183.333333333 Ffermion 
 364.75  177.0 moveto 
(e+)   show
 388.0  164.0 moveto 
(5)   show
 344.5 183.333333333 382.0 200 Ffermion 
 354.25  195.666666667 moveto 
(e-)   show
 388.0  202.666666667 moveto 
(4)   show
 307.0 150.0 344.5 183.333333333 0 Fphoton 
 321.25  168.666666667 moveto 
(z)   show
 346.774756442 123.483495706 307.0 150.0 Ffermion 
 328.387378221  138.741747853 moveto 
(e+)   show
 352.774756442  119.483495706 moveto 
(3)   show
 307.0 150.0 360.363435515 138.141458774 Ffermion 
 335.181717758  146.070729387 moveto 
(e-)   show
 366.363435515  136.808125441 moveto 
(6)   show
 269.5 150.0 307.0 150.0 Fhiggs 
 286.75  152.5 moveto 
(h)   show
 232 100 269.5 150.0 0 Fgluon 
 246.25  127.0 moveto 
(g)   show
 226.0  100 moveto 
(1)   show
 232 200 269.5 150.0 0 Fgluon 
 252.25  177.0 moveto 
(g)   show
 226.0  200 moveto 
(2)   show
 262.0  83.0 moveto 
( diagram 59 )   show
 322.0  83.0 moveto 
 (NP=2, QCD=0, QED=4, SMHLOOP=0)   show
 499.0 150.0 0.9 1.0 Fblob 
 461.5 150.0 0.9 1.0 Fblob 
 574.0 166.666666667 536.5 183.333333333 Ffermion 
 556.75  177.0 moveto 
(e+)   show
 580.0  164.0 moveto 
(5)   show
 536.5 183.333333333 574.0 200 Ffermion 
 546.25  195.666666667 moveto 
(e-)   show
 580.0  202.666666667 moveto 
(6)   show
 499.0 150.0 536.5 183.333333333 0 Fphoton 
 513.25  168.666666667 moveto 
(z)   show
 538.774756442 123.483495706 499.0 150.0 Ffermion 
 520.387378221  138.741747853 moveto 
(e+)   show
 544.774756442  119.483495706 moveto 
(3)   show
 499.0 150.0 552.363435515 138.141458774 Ffermion 
 527.181717758  146.070729387 moveto 
(e-)   show
 558.363435515  136.808125441 moveto 
(4)   show
 461.5 150.0 499.0 150.0 Fhiggs 
 478.75  152.5 moveto 
(h)   show
 424 100 461.5 150.0 0 Fgluon 
 438.25  127.0 moveto 
(g)   show
 418.0  100 moveto 
(1)   show
 424 200 461.5 150.0 0 Fgluon 
 444.25  177.0 moveto 
(g)   show
 418.0  200 moveto 
(2)   show
 454.0  83.0 moveto 
( diagram 60 )   show
 514.0  83.0 moveto 
 (NP=2, QCD=0, QED=4, SMHLOOP=0)   show
showpage
%%trailer
